{
    "_id": "5be5f5a43ffcc7038857f138",
    "tags": [
        "fish"
    ],
    "icon": "icons/en/Adorned_Scrubber.153c4a3d4d38b8b8d4a7490dddf5dc60.png",
    "thumb": "icons/en/thumbs/Adorned_Scrubber.153c4a3d4d38b8b8d4a7490dddf5dc60.128x128.png",
    "icon_format": "port",
    "url_name": "adorned_scrubber",
    "tradable": true,
    "en": {
        "item_name": "Adorned Scrubber",
        "description": "<p>Analyzes the growth of microbes dwelling in the aqua systems to monitor toxicity levels. It can be found in cave pools on Venus.</p>",
        "wiki_link": null,
        "drop": []
    },
    "ru": {
        "item_name": "Adorned Scrubber",
        "description": "<p>Analyzes the growth of microbes dwelling in the aqua systems to monitor toxicity levels. It can be found in cave pools on Venus.</p>",
        "wiki_link": null,
        "icon": null,
        "thumb": null,
        "drop": []
    }
}