{
    "_id": "5be5f5a43ffcc7038857f131",
    "tags": [
        "fish"
    ],
    "icon": "icons/en/Adorned_Echowinder.3ad49fc87bcd164711b412eedd19d671.png",
    "thumb": "icons/en/thumbs/Adorned_Echowinder.3ad49fc87bcd164711b412eedd19d671.128x128.png",
    "icon_format": "land",
    "url_name": "adorned_echowinder",
    "tradable": true,
    "en": {
        "item_name": "Adorned Echowinder",
        "description": "<p>Used to record visual data in the aqua systems and transmits the telemetrics to the Research Station. It can be found in the lake on Venus.</p>",
        "wiki_link": null,
        "drop": []
    },
    "ru": {
        "item_name": "Adorned Echowinder",
        "description": "<p>Used to record visual data in the aqua systems and transmits the telemetrics to the Research Station. It can be found in the lake on Venus.</p>",
        "wiki_link": null,
        "icon": null,
        "thumb": null,
        "drop": []
    }
}