{
    "_id": "5be5f5a23ffcc7038857f11b",
    "tags": [
        "fish"
    ],
    "icon": "icons/en/Adorned_Sapcaddy.4fdfb5da65ab09af427a79c0be7f0c28.png",
    "thumb": "icons/en/thumbs/Adorned_Sapcaddy.4fdfb5da65ab09af427a79c0be7f0c28.128x128.png",
    "icon_format": "land",
    "url_name": "adorned_sapcaddy",
    "tradable": true,
    "en": {
        "item_name": "Adorned Sapcaddy",
        "description": "<p>Collects fluid samples in the aqua system for the Research Station. It can be found in lakes around Venus.</p>",
        "wiki_link": null,
        "drop": []
    },
    "ru": {
        "item_name": "Adorned Sapcaddy",
        "description": "<p>Collects fluid samples in the aqua system for the Research Station. It can be found in lakes around Venus.</p>",
        "wiki_link": null,
        "icon": null,
        "thumb": null,
        "drop": []
    }
}