{
    "_id": "5be701133ffcc703e462c707",
    "tags": [
        "mod",
        "k-drive"
    ],
    "icon": "icons/en/Air_Time.1b64995d02f5d5a2eea334bed07da7fd.png",
    "thumb": "icons/en/thumbs/Air_Time.1b64995d02f5d5a2eea334bed07da7fd.128x128.png",
    "icon_format": "port",
    "url_name": "air_time",
    "tradable": true,
    "en": {
        "item_name": "Air Time",
        "description": "<p>-5% Gravity while Falling Down</p>",
        "wiki_link": null,
        "drop": []
    },
    "ru": {
        "item_name": "Air Time",
        "description": "<p>-5% Gravity while Falling Down</p>",
        "wiki_link": null,
        "icon": null,
        "thumb": null,
        "drop": []
    },
    "rarity": "common",
    "mod_max_rank": 3,
    "trading_tax": 2000
}