{
    "_id": "5bebf1713ffcc704caf38cf4",
    "tags": [
        "set",
        "prime"
    ],
    "icon": "icons/en/Akvasto_Prime_Set.029887bbd387510ffec1debd81f65dab.png",
    "thumb": "icons/en/thumbs/Akvasto_Prime_Set.029887bbd387510ffec1debd81f65dab.128x128.png",
    "icon_format": "land",
    "url_name": "akvasto_prime_set",
    "tradable": true,
    "part_of_set": [
        "5bebf1713ffcc704caf38cf4",
        "5bebf1713ffcc704caf38cf6",
        "5bebf1713ffcc704caf38cf7"
    ],
    "set_root": true,
    "en": {
        "item_name": "Akvasto Prime Set",
        "description": "<p>The Akvasto Prime is the primed version of the Akvasto revolver, sporting higher offensive stats at some expense to fire rate.</p>",
        "wiki_link": "http://warframe.wikia.com/wiki/Vasto_Prime",
        "drop": []
    },
    "ru": {
        "item_name": "Аквасто Прайм Комплект",
        "description": "<p>Прайм версия револьверов Аквасто.</p>",
        "wiki_link": "https://warframe.fandom.com/wiki/Akvasto_Prime",
        "icon": null,
        "thumb": null,
        "drop": []
    },
    "mastery_level": 12,
    "trading_tax": 2000
}