{
    "_id": "5beee8be3ffcc705699c5119",
    "tags": [
        "void relic"
    ],
    "icon": "icons/en/Axi_A5_Radiant.7055d3c25acd32e778ba11571ac4fbc9.png",
    "thumb": "icons/en/thumbs/Axi_A5_Radiant.7055d3c25acd32e778ba11571ac4fbc9.128x128.png",
    "icon_format": "port",
    "url_name": "axi_a5_radiant",
    "tradable": true,
    "en": {
        "item_name": "Axi A5 Radiant",
        "description": "<p>Void Relics are Orokin objects that can be opened to reveal valuable treasure enclosed within by completing Void Fissure missions. They are the principal means of acquiring Prime and Forma Blueprints.</p>",
        "wiki_link": "http://warframe.wikia.com/wiki/Void_Relic",
        "drop": []
    },
    "ru": {
        "item_name": "Акси A5 Сияющая",
        "description": "<p>Void Relics are Orokin objects that can be opened to reveal valuable treasure enclosed within by completing Void Fissure missions. They are the principal means of acquiring Prime and Forma Blueprints.</p>",
        "wiki_link": "http://ru.warframe.wikia.com/wiki/%D0%A0%D0%B5%D0%BB%D0%B8%D0%BA%D0%B2%D0%B8%D1%8F_%D0%B1%D0%B5%D0%B7%D0%B4%D0%BD%D1%8B",
        "icon": null,
        "thumb": null,
        "drop": []
    }
}