{
    "_id": "54a74454e779892d5e51560e",
    "tags": [
        "pistol",
        "mod",
        "rare"
    ],
    "icon": "icons/en/Barrel_Diffusion.3c2fbabc91cc911e56dc43b046b9ecdb.png",
    "thumb": "icons/en/thumbs/Barrel_Diffusion.3c2fbabc91cc911e56dc43b046b9ecdb.128x128.png",
    "icon_format": "port",
    "url_name": "barrel_diffusion",
    "tradable": true,
    "en": {
        "item_name": "Barrel Diffusion",
        "description": "<p>Barrel Diffusion increases the multishot of pistols. These additional rounds do not consume extra ammunition.</p>",
        "wiki_link": "http://warframe.wikia.com/wiki/Barrel_Diffusion",
        "drop": [
            {
                "name": "The Grustrag Three",
                "link": null
            },
            {
                "name": "GrineerSeeker",
                "link": null
            },
            {
                "name": "Orokin Void Containers",
                "link": null
            },
            {
                "name": "Dark Sectors Defense Reward",
                "link": null
            },
            {
                "name": "Infested T3Defense Reward",
                "link": null
            },
            {
                "name": "Interception Wave Reward",
                "link": null
            }
        ]
    },
    "ru": {
        "item_name": "Двойной Ствол",
        "description": "<p>Двойной Ствол — редкий мод для вторичного оружия, который увеличивает произведения дополнительного выстрела.</p>",
        "wiki_link": "http://ru.warframe.wikia.com/wiki/%D0%94%D0%B2%D0%BE%D0%B9%D0%BD%D0%BE%D0%B9_%D1%81%D1%82%D0%B2%D0%BE%D0%BB",
        "icon": "icons/ru/Barrel_Diffusion.b96103b17a46dbc974cd61632ff2716b.png",
        "thumb": "icons/ru/thumbs/Barrel_Diffusion.b96103b17a46dbc974cd61632ff2716b.128x128.png",
        "drop": [
            {
                "name": "The Grustrag Three",
                "link": null
            },
            {
                "name": "GrineerSeeker",
                "link": null
            },
            {
                "name": "Orokin Void Containers",
                "link": null
            },
            {
                "name": "Dark Sectors Defense Reward",
                "link": null
            },
            {
                "name": "Infested T3Defense Reward",
                "link": null
            },
            {
                "name": "Interception Wave Reward",
                "link": null
            }
        ]
    },
    "rarity": "rare",
    "mod_max_rank": 5,
    "trading_tax": 8000
}