{
    "_id": "5be5f59f3ffcc7038857f101",
    "tags": [
        "fish"
    ],
    "icon": "icons/en/Basic_Mirewinder.f563baa743cd783e0cb9649779cdc4d7.png",
    "thumb": "icons/en/thumbs/Basic_Mirewinder.f563baa743cd783e0cb9649779cdc4d7.128x128.png",
    "icon_format": "land",
    "url_name": "basic_mirewinder",
    "tradable": true,
    "en": {
        "item_name": "Basic Mirewinder",
        "description": "<p>Surveys the water for impurities. It can be found in cave pools on Venus.</p>",
        "wiki_link": null,
        "drop": []
    },
    "ru": {
        "item_name": "Basic Mirewinder",
        "description": "<p>Surveys the water for impurities. It can be found in cave pools on Venus.</p>",
        "wiki_link": null,
        "icon": null,
        "thumb": null,
        "drop": []
    }
}