{
    "_id": "5be5f5a43ffcc7038857f12f",
    "tags": [
        "mod",
        "daggers",
        "conclave",
        "pvp"
    ],
    "icon": "icons/en/Biting_Piranha.3ee2f8dd42bb3aa6c5351a8a85813984.png",
    "thumb": "icons/en/thumbs/Biting_Piranha.3ee2f8dd42bb3aa6c5351a8a85813984.128x128.png",
    "icon_format": "port",
    "url_name": "biting_piranha",
    "tradable": true,
    "en": {
        "item_name": "Biting Piranha",
        "description": "<p>Fighting form devised for Conclave.</p>",
        "wiki_link": "https://warframe.fandom.com/wiki/Biting_Piranha",
        "drop": []
    },
    "ru": {
        "item_name": "Biting Piranha",
        "description": "<p>Fighting form devised for Conclave.</p>",
        "wiki_link": "https://warframe.fandom.com/wiki/Biting_Piranha",
        "icon": null,
        "thumb": null,
        "drop": []
    },
    "rarity": "uncommon",
    "mod_max_rank": 3,
    "trading_tax": 4000
}