{
    "_id": "583580fd2c2ada003badef89",
    "tags": [
        "blueprint",
        "prime",
        "bow"
    ],
    "icon": "icons/en/Cernos_Prime_Set.b3ac02e80ee17cc0756348f1d04b69cc.png",
    "thumb": "icons/en/thumbs/Cernos_Prime_Set.b3ac02e80ee17cc0756348f1d04b69cc.128x128.png",
    "icon_format": "port",
    "sub_icon": "sub_icons/string_128x128.png",
    "url_name": "cernos_prime_string",
    "tradable": true,
    "part_of_set": [
        "583580ff2c2ada003badef8a",
        "583580d52c2ada003badef85",
        "583580fb2c2ada003badef88",
        "583580e12c2ada003badef86",
        "583580fd2c2ada003badef89",
        "583580f42c2ada003badef87"
    ],
    "set_root": false,
    "en": {
        "item_name": "Cernos Prime String",
        "description": "<p>The Cernos Prime is an ancient Orokin bow that serves as an upgrade of the Cernos, featuring improved stats as well as the ability to fire multiple arrows at once.</p>",
        "wiki_link": "http://warframe.wikia.com/wiki/Cernos_Prime",
        "drop": [
            {
                "name": "Neo A1 Uncommon",
                "link": null
            }
        ],
        "codex": ""
    },
    "ru": {
        "item_name": "Кернунн Прайм Тетива",
        "description": "<p>Благородный лук для охоты на дьявольских созданий.</p>",
        "wiki_link": "http://ru.warframe.wikia.com/wiki/%D0%9A%D0%B5%D1%80%D0%BD%D1%83%D0%BD%D0%BD/%D0%9F%D1%80%D0%B0%D0%B9%D0%BC",
        "icon": null,
        "thumb": null,
        "drop": [
            {
                "name": "Neo A1 Uncommon",
                "link": null
            }
        ]
    },
    "mastery_level": 12,
    "ducats": 45,
    "trading_tax": 2000
}