{
    "_id": "5ba9f2034567de01415f638b",
    "tags": [
        "set",
        "prime",
        "warframe"
    ],
    "icon": "icons/en/Chroma_Prime_Set.746ea1c1556aa60f94f0c2399946baaf.png",
    "thumb": "icons/en/thumbs/Chroma_Prime_Set.746ea1c1556aa60f94f0c2399946baaf.128x128.png",
    "icon_format": "land",
    "url_name": "chroma_prime_set",
    "tradable": true,
    "part_of_set": [
        "5ba9f2034567de01415f638b",
        "5ba9f2014567de01415f6387",
        "5ba9f2024567de01415f6388",
        "5ba9f2024567de01415f6389",
        "5ba9f2054567de01415f6390"
    ],
    "set_root": true,
    "en": {
        "item_name": "Chroma Prime Set",
        "description": "<p>Release Date: September 25th, 2018</p><p>Chroma Prime is the Primed variant of Chroma, possessing increased armor and energy capacity over the regular counterpart.</p>",
        "wiki_link": "http://warframe.wikia.com/wiki/Chroma/Prime",
        "drop": []
    },
    "ru": {
        "item_name": "Хрома Прайм Комплект",
        "description": "<p>Release Date: September 25th, 2018</p><p>Chroma Prime is the Primed variant of Chroma, possessing increased armor and energy capacity over the regular counterpart.</p>",
        "wiki_link": "http://ru.warframe.wikia.com/wiki/%D0%A5%D1%80%D0%BE%D0%BC%D0%B0",
        "icon": null,
        "thumb": null,
        "drop": []
    },
    "mastery_level": 0,
    "trading_tax": 20000
}