{
    "_id": "5ada1ab4b2b6a80bb33793f5",
    "tags": [
        "mod",
        "warframe",
        "rare"
    ],
    "icon": "icons/en/Concentrated_Arrow.85c0266f9521db62d11d6f5c95aeebc2.png",
    "thumb": "icons/en/thumbs/Concentrated_Arrow.85c0266f9521db62d11d6f5c95aeebc2.128x128.png",
    "icon_format": "port",
    "url_name": "concentrated_arrow",
    "tradable": true,
    "en": {
        "item_name": "Concentrated Arrow",
        "description": "<p>Concentrated Arrow is a Warframe Augment Mod for Ivara that replaces Artemis Bow's multiple projectiles with a single arrow. On headshots, the arrow has added critical chance and explodes. The single arrow is incapable of utilising punch through.</p>",
        "wiki_link": "http://warframe.wikia.com/wiki/Concentrated_Arrow",
        "drop": [
            {
                "name": "Cephalon Suda",
                "link": null
            },
            {
                "name": "The Perrin Sequence",
                "link": null
            }
        ]
    },
    "ru": {
        "item_name": "Сфокусированная Стрела",
        "description": "<p>Сфокусированная Стрела — мод-аугмент для Варфрейма Ивара, изменяющий способность Лук Артемиды. Во время активной способности выпускает всего одну стрелу, которая при попадании в голову имеет повышенный шанс критического урона, а так же взрывается в радиусе 7 м. Убирает пронзание.</p>",
        "wiki_link": "http://ru.warframe.wikia.com/wiki/%D0%A1%D1%84%D0%BE%D0%BA%D1%83%D1%81%D0%B8%D1%80%D0%BE%D0%B2%D0%B0%D0%BD%D0%BD%D0%B0%D1%8F_%D0%A1%D1%82%D1%80%D0%B5%D0%BB%D0%B0",
        "icon": "icons/ru/Concentrated_Arrow.b43665653ee315d37e273243766d878d.png",
        "thumb": "icons/ru/thumbs/Concentrated_Arrow.b43665653ee315d37e273243766d878d.128x128.png",
        "drop": [
            {
                "name": "Цефалон Суда",
                "link": null
            },
            {
                "name": "Последовательность Перрина",
                "link": null
            }
        ]
    },
    "rarity": "rare",
    "mod_max_rank": 3,
    "trading_tax": 8000
}