{
    "_id": "5be5f5a23ffcc7038857f11c",
    "tags": [
        "mod",
        "dual swords",
        "conclave",
        "pvp"
    ],
    "icon": "icons/en/Dividing_Blades.7a0b836b0f4cdaa3132db5a08bbc01f9.png",
    "thumb": "icons/en/thumbs/Dividing_Blades.7a0b836b0f4cdaa3132db5a08bbc01f9.128x128.png",
    "icon_format": "port",
    "url_name": "dividing_blades",
    "tradable": true,
    "en": {
        "item_name": "Dividing Blades",
        "description": "<p>Fighting form devised for Conclave.</p>",
        "wiki_link": "https://warframe.fandom.com/wiki/Dividing_Blades",
        "drop": []
    },
    "ru": {
        "item_name": "Dividing Blades",
        "description": "<p>Fighting form devised for Conclave.</p>",
        "wiki_link": "https://warframe.fandom.com/wiki/Dividing_Blades",
        "icon": null,
        "thumb": null,
        "drop": []
    },
    "rarity": "uncommon",
    "mod_max_rank": 3,
    "trading_tax": 4000
}