{
    "_id": "5ada1ab4b2b6a80bb33793f6",
    "tags": [
        "mod",
        "rare"
    ],
    "icon": "icons/en/Energy_Transfer.af31c7a3333fd9b17ac2f266fe39216b.png",
    "thumb": "icons/en/thumbs/Energy_Transfer.af31c7a3333fd9b17ac2f266fe39216b.128x128.png",
    "icon_format": "port",
    "url_name": "energy_transfer",
    "tradable": true,
    "en": {
        "item_name": "Energy Transfer",
        "description": "<p>Energy Transfer is a Warframe Augment Mod for Equinox that conserves a percentage of stored hitpoints from Mend & Maim, as well as allowing the ability to remain active when switching forms via Metamorphosis.</p>",
        "wiki_link": "http://warframe.wikia.com/wiki/Energy_Transfer",
        "drop": [
            {
                "name": "Arbiters of Hexis",
                "link": null
            },
            {
                "name": "New Loka",
                "link": null
            }
        ]
    },
    "ru": {
        "item_name": "Перенос Энергии",
        "description": "<p>Перенос Энергии — мод-аугмент для варфрейма Эквинокс</p>",
        "wiki_link": "http://warframe.wikia.com/wiki/Energy_Transfer",
        "icon": null,
        "thumb": null,
        "drop": [
            {
                "name": "Арбитры Гексиса",
                "link": null
            },
            {
                "name": "Новая Лока",
                "link": null
            }
        ]
    },
    "rarity": "rare",
    "mod_max_rank": 3,
    "trading_tax": 8000
}