{
    "_id": "5b91784d0566c80216658ce9",
    "tags": [
        "mod",
        "wukong"
    ],
    "icon": "icons/en/Enveloping_Cloud.bd980ad56e9579b5c5f5504079f7d273.png",
    "thumb": "icons/en/thumbs/Enveloping_Cloud.bd980ad56e9579b5c5f5504079f7d273.128x128.png",
    "icon_format": "port",
    "url_name": "enveloping_cloud",
    "tradable": true,
    "en": {
        "item_name": "Enveloping Cloud",
        "description": "<p>Enveloping Cloud is a Warframe Augment Mod for Wukong's Cloud Walker that gives allies near the cloud temporary invisiblity.</p>",
        "wiki_link": "http://warframe.wikia.com/wiki/Enveloping_Cloud",
        "drop": [
            {
                "name": "Arbiters of Hexis",
                "link": null
            },
            {
                "name": "New Loka",
                "link": null
            }
        ]
    },
    "ru": {
        "item_name": "Окутывающее Облако",
        "description": "<p>Мод-аугмент для Варфрейма Вуконг изменяющий способность Идущий Среди Облаков. При использовании способности, союзники в радиусе 2.5 / 3 / 3.5 / 4 метров получают невидимость на 8 / 10 / 12 / 14 секунд.</p>",
        "wiki_link": "http://ru.warframe.wikia.com/wiki/%D0%9E%D0%BA%D1%83%D1%82%D1%8B%D0%B2%D0%B0%D1%8E%D1%89%D0%B5%D0%B5_%D0%9E%D0%B1%D0%BB%D0%B0%D0%BA%D0%BE",
        "icon": "icons/ru/Enveloping_Cloud.ac80580e864c8bbd71e90bb68a867125.png",
        "thumb": "icons/ru/thumbs/Enveloping_Cloud.ac80580e864c8bbd71e90bb68a867125.128x128.png",
        "drop": [
            {
                "name": "Арбитры Гексиса",
                "link": null
            },
            {
                "name": "Новая Лока",
                "link": null
            }
        ]
    },
    "rarity": "rare",
    "mod_max_rank": 3,
    "trading_tax": 8000
}