{
    "_id": "59eba86952f90ed715e14156",
    "tags": [
        "gems"
    ],
    "icon": "icons/en/Esher_Devar.c0c43cd7a20d441676da210e92a83600.png",
    "thumb": "icons/en/thumbs/Esher_Devar.c0c43cd7a20d441676da210e92a83600.128x128.png",
    "icon_format": "port",
    "url_name": "esher_devar",
    "tradable": true,
    "en": {
        "item_name": "Esher Devar",
        "description": "<p>Esher Devar is a resource used to make Gara Systems (25x) and Kronsh Zaw Component (10x).</p>",
        "wiki_link": "http://warframe.wikia.com/wiki/Esher_Devar",
        "drop": [],
        "codex": ""
    },
    "ru": {
        "item_name": "Девар-эшер",
        "description": "<p>Отполированный и огранённый до совершенства.</p>",
        "wiki_link": "http://ru.warframe.wikia.com/wiki/%D0%94%D0%B5%D0%B2%D0%B0%D1%80-%D1%8D%D1%88%D0%B5%D1%80",
        "icon": null,
        "thumb": null,
        "drop": []
    }
}