{
    "_id": "54a74454e779892d5e515689",
    "tags": [
        "archwing melee",
        "mod",
        "uncommon"
    ],
    "icon": "icons/en/Galvanized_Blade.dbd843a5bdcdf3c963a99b8afbf906c8.png",
    "thumb": "icons/en/thumbs/Galvanized_Blade.dbd843a5bdcdf3c963a99b8afbf906c8.128x128.png",
    "icon_format": "port",
    "url_name": "galvanized_blade",
    "tradable": true,
    "en": {
        "item_name": "Galvanized Blade",
        "description": "<p>The Galvanized Blade mod adds  Electric damage on Archwing melee weapons by 20% per rank at a maximum of 120% at rank 5.</p>",
        "wiki_link": "http://warframe.wikia.com/wiki/Galvanized_Blade",
        "drop": [
            {
                "name": "GrineerShield Dargyn",
                "link": null
            },
            {
                "name": "Archwing Sabotage Reward",
                "link": null
            },
            {
                "name": "Archwing Interception Reward",
                "link": null
            }
        ]
    },
    "ru": {
        "item_name": "Гальванизированный клинок",
        "description": "<p>Гальванизированный Клинок — мод для оружия ближнего боя арчвинг, которыйувеличивает  электрический урон.</p>",
        "wiki_link": "http://ru.warframe.wikia.com/wiki/%D0%93%D0%B0%D0%BB%D1%8C%D0%B2%D0%B0%D0%BD%D0%B8%D0%B7%D0%B8%D1%80%D0%BE%D0%B2%D0%B0%D0%BD%D0%BD%D1%8B%D0%B9_%D0%BA%D0%BB%D0%B8%D0%BD%D0%BE%D0%BA",
        "icon": "icons/ru/Galvanized_Blade.0cd62c4ab861839574d2b0dcb803f322.png",
        "thumb": "icons/ru/thumbs/Galvanized_Blade.0cd62c4ab861839574d2b0dcb803f322.128x128.png",
        "drop": [
            {
                "name": "GrineerShield Dargyn",
                "link": null
            },
            {
                "name": "Archwing Sabotage Reward",
                "link": null
            },
            {
                "name": "Archwing Interception Reward",
                "link": null
            }
        ]
    },
    "rarity": "uncommon",
    "mod_max_rank": 5,
    "trading_tax": 4000
}