{
    "_id": "59a48b625cd9938cfede7038",
    "tags": [
        "blueprint",
        "warframe"
    ],
    "icon": "icons/en/Hydroid_Prime_Set.5f1abb4ef137bf0dd41565a913f5232a.png",
    "thumb": "icons/en/thumbs/Hydroid_Prime_Set.5f1abb4ef137bf0dd41565a913f5232a.128x128.png",
    "icon_format": "port",
    "sub_icon": "sub_icons/blueprint_128x128.png",
    "url_name": "hydroid_prime_blueprint",
    "tradable": true,
    "part_of_set": [
        "59a48b625cd9938cfede703c",
        "59a48b625cd9938cfede7038",
        "59a48b625cd9938cfede703a",
        "59a48b625cd9938cfede7039",
        "59a48b625cd9938cfede703b"
    ],
    "set_root": false,
    "en": {
        "item_name": "Hydroid Prime Blueprint",
        "description": "<p>Release Date: August 29th, 2017</p><p>Hydroid Prime is the primed variant of the Hydroid Warframe featuring more powerful stats: increased armor, energy and shield ratings, as well as an additional  and  polarity. It was released alongside Ballistica Prime and Nami Skyla Prime.</p>",
        "wiki_link": "http://warframe.wikia.com/wiki/Hydroid/Prime",
        "drop": [
            {
                "name": "Meso N5 Uncommon",
                "link": null
            },
            {
                "name": "Meso B2 Uncommon",
                "link": null
            }
        ],
        "codex": "Command the ocean's fury with this king of gold and silver. Featuring altered mod polarities for greater customization."
    },
    "ru": {
        "item_name": "Гидроид Прайм Чертеж",
        "description": "<p>Повелевайте яростью океана с этим королем из золота и серебра. Обладает дополнительными полярностями слотов для более тонкой настройки.</p>",
        "wiki_link": "http://ru.warframe.wikia.com/wiki/%D0%93%D0%B8%D0%B4%D1%80%D0%BE%D0%B8%D0%B4/%D0%9F%D1%80%D0%B0%D0%B9%D0%BC",
        "icon": null,
        "thumb": null,
        "drop": [
            {
                "name": "Мезо N5 Uncommon",
                "link": null
            },
            {
                "name": "Мезо B2 Uncommon",
                "link": null
            }
        ]
    },
    "ducats": 45,
    "trading_tax": 4000
}