{
    "_id": "5be5f5a23ffcc7038857f121",
    "tags": [
        "mod",
        "sword and shield",
        "conclave",
        "pvp"
    ],
    "icon": "icons/en/Last_Herald.28f1e9ce1b932b290d2feb5c53bdd6a1.png",
    "thumb": "icons/en/thumbs/Last_Herald.28f1e9ce1b932b290d2feb5c53bdd6a1.128x128.png",
    "icon_format": "port",
    "url_name": "last_herald",
    "tradable": true,
    "en": {
        "item_name": "Last Herald",
        "description": "<p>Fighting form devised for Conclave.</p>",
        "wiki_link": "https://warframe.fandom.com/wiki/Last_Herald",
        "drop": []
    },
    "ru": {
        "item_name": "Last Herald",
        "description": "<p>Fighting form devised for Conclave.</p>",
        "wiki_link": "https://warframe.fandom.com/wiki/Last_Herald",
        "icon": null,
        "thumb": null,
        "drop": []
    },
    "rarity": "uncommon",
    "mod_max_rank": 3,
    "trading_tax": 4000
}