{
    "_id": "5adf872a931bcf00574adc16",
    "tags": [
        "parts",
        "weapons",
        "vandal",
        "receiver"
    ],
    "icon": "icons/en/Lato_Vandal_Set.d3f82be07b93c35d6e1e9430c796ac9a.png",
    "thumb": "icons/en/thumbs/Lato_Vandal_Set.d3f82be07b93c35d6e1e9430c796ac9a.128x128.png",
    "icon_format": "land",
    "sub_icon": "sub_icons/generic_receiver_128x128.png",
    "url_name": "lato_vandal_receiver",
    "tradable": true,
    "part_of_set": [
        "5adf8729931bcf00574adc0f",
        "5adf8729931bcf00574adc11",
        "5adf872a931bcf00574adc13",
        "5adf872a931bcf00574adc16"
    ],
    "set_root": false,
    "en": {
        "item_name": "Lato Vandal Receiver",
        "description": "The Lato Vandal is the Vandal version of the Lato. The Lato Vandal has a metallic green-blue color scheme, and bears the Lotus emblem on the grip. The Lato Vandal gains improved damage and accuracy in exchange for a reduced rate of fire.",
        "wiki_link": "http://warframe.wikia.com/wiki/Lato_Vandal",
        "drop": [
            {
                "name": "Elite Sanctuary Onslaught",
                "link": null
            }
        ],
        "codex": "A special version of the standard Lato pistol with a slower fire rate but offering higher accuracy and damage values. The Lato Vandal has been customized by the Tenno with a blue-green metallic finish, and Lotus branding on the grips."
    },
    "ru": {
        "item_name": "Лато Вандал Приёмник",
        "description": "<p>Специальная версия обычного пистолета Лато с меньшей скорострельностью, но более высокой точностью и с усиленным уроном. Благодаря Тэнно Лато Вандал получил сине-зеленый металлический окрас и метку Лотоса на рукояти.</p>",
        "wiki_link": "http://ru.warframe.wikia.com/wiki/%D0%9B%D0%B0%D1%82%D0%BE_%D0%92%D0%B0%D0%BD%D0%B4%D0%B0%D0%BB",
        "icon": null,
        "thumb": null,
        "drop": [
            {
                "name": "Elite Sanctuary Onslaught",
                "link": null
            }
        ]
    },
    "mastery_level": 7
}