{
    "_id": "54a74454e779892d5e515601",
    "tags": [
        "kubrow",
        "mod",
        "uncommon"
    ],
    "icon": "icons/en/Link_Health.a7011e17699c06f369132a947d66e5fe.png",
    "thumb": "icons/en/thumbs/Link_Health.a7011e17699c06f369132a947d66e5fe.128x128.png",
    "icon_format": "port",
    "url_name": "link_health",
    "tradable": true,
    "en": {
        "item_name": "Link Health",
        "description": "<p>Link Health is a Kubrow mod that increases its health based on a percentage of the player's health. The player's health is unaffected by this mod.</p>",
        "wiki_link": "http://warframe.wikia.com/wiki/Link_Health",
        "drop": [
            {
                "name": "Drahk",
                "link": null
            },
            {
                "name": "Kubrow (Feral)",
                "link": null
            }
        ]
    },
    "ru": {
        "item_name": "Связь здоровья",
        "description": "<p>Связь Здоровья — необычный мод для всех пород Кубрау, увеличивающий максимальное значение здоровья питомца путем добавления к нему процента здоровья текущего варфрейма.</p>",
        "wiki_link": "http://ru.warframe.wikia.com/wiki/%D0%A1%D0%B2%D1%8F%D0%B7%D1%8C_%D0%B7%D0%B4%D0%BE%D1%80%D0%BE%D0%B2%D1%8C%D1%8F",
        "icon": "icons/ru/Link_Health.2d40213a2ea7696cbb96a47b2bbf19a0.png",
        "thumb": "icons/ru/thumbs/Link_Health.2d40213a2ea7696cbb96a47b2bbf19a0.128x128.png",
        "drop": [
            {
                "name": "Drahk",
                "link": null
            },
            {
                "name": "Kubrow (Feral)",
                "link": null
            }
        ]
    },
    "rarity": "uncommon",
    "mod_max_rank": 10,
    "trading_tax": 4000
}