{
    "_id": "5beee8c23ffcc705699c5122",
    "tags": [
        "void relic"
    ],
    "icon": "icons/en/Lith_M2_Intact.03df8ae0d8eeaf8e33332e021700657a.png",
    "thumb": "icons/en/thumbs/Lith_M2_Intact.03df8ae0d8eeaf8e33332e021700657a.128x128.png",
    "icon_format": "port",
    "url_name": "lith_m2_intact",
    "tradable": true,
    "en": {
        "item_name": "Lith M2 Intact",
        "description": "<p>Void Relics are Orokin objects that can be opened to reveal valuable treasure enclosed within by completing Void Fissure missions. They are the principal means of acquiring Prime and Forma Blueprints.</p>",
        "wiki_link": "http://warframe.wikia.com/wiki/Void_Relic",
        "drop": []
    },
    "ru": {
        "item_name": "Лит M2 Нетронутая",
        "description": "<p>Void Relics are Orokin objects that can be opened to reveal valuable treasure enclosed within by completing Void Fissure missions. They are the principal means of acquiring Prime and Forma Blueprints.</p>",
        "wiki_link": "http://ru.warframe.wikia.com/wiki/%D0%A0%D0%B5%D0%BB%D0%B8%D0%BA%D0%B2%D0%B8%D1%8F_%D0%B1%D0%B5%D0%B7%D0%B4%D0%BD%D1%8B",
        "icon": null,
        "thumb": null,
        "drop": []
    }
}