{
    "_id": "5740c1879d238d4a03d28518",
    "tags": [
        "mod",
        "sentinel",
        "rare"
    ],
    "icon": "icons/en/Looter.eb87275b07df115d778c0b4540e62bca.png",
    "thumb": "icons/en/thumbs/Looter.eb87275b07df115d778c0b4540e62bca.128x128.png",
    "icon_format": "port",
    "url_name": "looter",
    "tradable": true,
    "en": {
        "item_name": "Looter",
        "description": "<p>Looter allows the Carrier (and its Prime counterpart) to break nearby containers by releasing a wave of energy that destroys all breakable loot containers within 12 meters at max rank.</p>",
        "wiki_link": "http://warframe.wikia.com/wiki/Looter",
        "drop": [
            {
                "name": "Cephalon Simaris Offering",
                "link": null
            }
        ]
    },
    "ru": {
        "item_name": "Грабитель",
        "description": "<p>Грабитель — редкий мод для Стража Носитель, который позволяет ему разрушать контейнеры в определенном радиусе.</p>",
        "wiki_link": "http://ru.warframe.wikia.com/wiki/%D0%9C%D0%B0%D1%80%D0%BE%D0%B4%D0%B5%D1%80",
        "icon": "icons/ru/Looter.8c8b5d356d30759d5cb0ad5f2ba3be36.png",
        "thumb": "icons/ru/thumbs/Looter.8c8b5d356d30759d5cb0ad5f2ba3be36.128x128.png",
        "drop": [
            {
                "name": "Цефалон Симэрис",
                "link": null
            }
        ]
    },
    "rarity": "rare",
    "mod_max_rank": 5,
    "trading_tax": 8000
}