{
    "_id": "5be701153ffcc703e462c70c",
    "tags": [
        "mod",
        "k-drive"
    ],
    "icon": "icons/en/Mag_Locks.37f998cca140b3e158a90166a2cc15fc.png",
    "thumb": "icons/en/thumbs/Mag_Locks.37f998cca140b3e158a90166a2cc15fc.128x128.png",
    "icon_format": "port",
    "url_name": "mag_locks",
    "tradable": true,
    "en": {
        "item_name": "Mag Locks",
        "description": "<p>+5% K-Drive Grind Magnetism</p>",
        "wiki_link": null,
        "drop": []
    },
    "ru": {
        "item_name": "Mag Locks",
        "description": "<p>+5% K-Drive Grind Magnetism</p>",
        "wiki_link": null,
        "icon": null,
        "thumb": null,
        "drop": []
    },
    "rarity": "common",
    "mod_max_rank": 5,
    "trading_tax": 2000
}