{
    "_id": "5be5f59e3ffcc7038857f0f5",
    "tags": [
        "fish"
    ],
    "icon": "icons/en/Magnificent_Tromyzon.b7614d1ada0bf67bead48286ba584fcc.png",
    "thumb": "icons/en/thumbs/Magnificent_Tromyzon.b7614d1ada0bf67bead48286ba584fcc.128x128.png",
    "icon_format": "land",
    "url_name": "magnificent_tromyzon",
    "tradable": true,
    "en": {
        "item_name": "Magnificent Tromyzon",
        "description": "<p>Programmed to break down chemical byproducts leaked into the aqua system. It can be found in ponds around Venus.</p>",
        "wiki_link": null,
        "drop": []
    },
    "ru": {
        "item_name": "Magnificent Tromyzon",
        "description": "<p>Programmed to break down chemical byproducts leaked into the aqua system. It can be found in ponds around Venus.</p>",
        "wiki_link": null,
        "icon": null,
        "thumb": null,
        "drop": []
    }
}