{
    "_id": "5be5f5a23ffcc7038857f120",
    "tags": [
        "fish"
    ],
    "icon": "icons/en/Magnificent_Scrubber.706f8784e6d66bb85012cc4a2686ccd8.png",
    "thumb": "icons/en/thumbs/Magnificent_Scrubber.706f8784e6d66bb85012cc4a2686ccd8.128x128.png",
    "icon_format": "port",
    "url_name": "magnificent_scrubber",
    "tradable": true,
    "en": {
        "item_name": "Magnificent Scrubber",
        "description": "<p>Analyzes the growth of microbes dwelling in the aqua systems to monitor toxicity levels. It can be found in cave pools on Venus.</p>",
        "wiki_link": null,
        "drop": []
    },
    "ru": {
        "item_name": "Magnificent Scrubber",
        "description": "<p>Analyzes the growth of microbes dwelling in the aqua systems to monitor toxicity levels. It can be found in cave pools on Venus.</p>",
        "wiki_link": null,
        "icon": null,
        "thumb": null,
        "drop": []
    }
}