{
    "_id": "5be5f5a13ffcc7038857f10d",
    "tags": [
        "gems"
    ],
    "icon": "icons/en/Marquise_Thyst.4bf2ae61f1f162bb407246a5cef61401.png",
    "thumb": "icons/en/thumbs/Marquise_Thyst.4bf2ae61f1f162bb407246a5cef61401.128x128.png",
    "icon_format": "port",
    "url_name": "marquise_thyst",
    "tradable": true,
    "en": {
        "item_name": "Marquise Thyst",
        "description": "<p>Polished and cut to perfection.</p>",
        "wiki_link": null,
        "drop": []
    },
    "ru": {
        "item_name": "Marquise Thyst",
        "description": "<p>Polished and cut to perfection.</p>",
        "wiki_link": null,
        "icon": null,
        "thumb": null,
        "drop": []
    }
}