{
    "_id": "5be4b0a53ffcc703294e76b7",
    "tags": [
        "mod",
        "warframe"
    ],
    "icon": "icons/en/Mecha_Pulse.e93846a040e84a419220f806433d2406.png",
    "thumb": "icons/en/thumbs/Mecha_Pulse.e93846a040e84a419220f806433d2406.128x128.png",
    "icon_format": "port",
    "url_name": "mecha_pulse",
    "tradable": true,
    "en": {
        "item_name": "Mecha Pulse",
        "description": "<p>Mecha Pulse - Warframe: Killing a Marked Enemy grants +20% armor for 12 secs for each enemy within 30m.</p><p>Set Bonus: Kubrow marks an enemy every 15 secs for 12 secs. Killing this enemy applies all status effects on them to other enemies within 30m.</p>",
        "wiki_link": "http://warframe.fandom.com/wiki/Mecha_Pulse",
        "drop": []
    },
    "ru": {
        "item_name": "Mecha Pulse",
        "description": "<p>Mecha Pulse - Warframe: Killing a Marked Enemy grants +20% armor for 12 secs for each enemy within 30m.</p><p>Set Bonus: Kubrow marks an enemy every 15 secs for 12 secs. Killing this enemy applies all status effects on them to other enemies within 30m.</p>",
        "wiki_link": "http://warframe.fandom.com/wiki/Mecha_Pulse",
        "icon": null,
        "thumb": null,
        "drop": []
    },
    "rarity": "rare",
    "mod_max_rank": 3,
    "trading_tax": 8000
}