{
    "_id": "595567c18e34b5ed3cb3d9b9",
    "tags": [
        "mod",
        "riven"
    ],
    "icon": "icons/en/Melee_Riven_Mod_(Veiled).efa7515ed4b28b90fcde3b230701034b.png",
    "thumb": "icons/en/thumbs/Melee_Riven_Mod_(Veiled).efa7515ed4b28b90fcde3b230701034b.128x128.png",
    "icon_format": "port",
    "url_name": "melee_riven_mod_(veiled)",
    "tradable": true,
    "en": {
        "item_name": "Melee Riven Mod (Veiled)",
        "description": "<p>For Melee weapons</p>",
        "wiki_link": "http://warframe.wikia.com/wiki/Riven_Mods",
        "drop": [
            {
                "name": "The War Within quest",
                "link": null
            },
            {
                "name": "Sorties",
                "link": null
            }
        ],
        "codex": ""
    },
    "ru": {
        "item_name": "Скрытый Модификатор Разлома: Ближний бой",
        "description": "<p>Для оружия ближнего боя</p>",
        "wiki_link": "http://ru.warframe.wikia.com/wiki/%D0%9C%D0%BE%D0%B4%D1%8B_%D1%80%D0%B0%D0%B7%D0%BB%D0%BE%D0%BC%D0%B0",
        "icon": "icons/ru/Melee_Riven_Mod_(Veiled).f568e43337b0b38c18fee75c2f0f5299.png",
        "thumb": "icons/ru/thumbs/Melee_Riven_Mod_(Veiled).f568e43337b0b38c18fee75c2f0f5299.128x128.png",
        "drop": [
            {
                "name": "Квест Война Внутри",
                "link": null
            },
            {
                "name": "Вылазки",
                "link": null
            }
        ]
    },
    "rarity": "riven"
}