{
    "_id": "5b91784d0566c80216658ce7",
    "tags": [
        "mod",
        "gara"
    ],
    "icon": "icons/en/Mending_Splinters.d342d63b040feb053c5c1a2dc66ea373.png",
    "thumb": "icons/en/thumbs/Mending_Splinters.d342d63b040feb053c5c1a2dc66ea373.128x128.png",
    "icon_format": "port",
    "url_name": "mending_splinters",
    "tradable": true,
    "en": {
        "item_name": "Mending Splinters",
        "description": "<p>Mending Splinters is a Warframe Augment Mod for Gara's Splinter Storm that causes it to heal friendly targets it's applied to, with the healing being increased for every target (friendly or not) affected by Splinter Storm for a short time.</p>",
        "wiki_link": "http://warframe.wikia.com/wiki/Mending_Splinters",
        "drop": [
            {
                "name": "Arbiters of Hexis",
                "link": null
            },
            {
                "name": "New Loka",
                "link": null
            }
        ]
    },
    "ru": {
        "item_name": "Лечащие Осколки",
        "description": "<p>Мод-аугмент для Варфрейма Гара изменяющий способность Осколочный Шторм. За каждую задетую осколками цель, Гара исцеляется на 1.5 / 2 / 2.5 / 3 здоровья в секунду в течение короткого времени.</p>",
        "wiki_link": "http://ru.warframe.wikia.com/wiki/%D0%9B%D0%B5%D1%87%D0%B0%D1%89%D0%B8%D0%B5_%D0%9E%D1%81%D0%BA%D0%BE%D0%BB%D0%BA%D0%B8",
        "icon": "icons/ru/Mending_Splinters.2dae03c3e0cd2564d7e65f1796972be6.png",
        "thumb": "icons/ru/thumbs/Mending_Splinters.2dae03c3e0cd2564d7e65f1796972be6.128x128.png",
        "drop": [
            {
                "name": "Арбитры Гексиса",
                "link": null
            },
            {
                "name": "Новая Лока",
                "link": null
            }
        ]
    },
    "rarity": "rare",
    "mod_max_rank": 3,
    "trading_tax": 8000
}