{
    "_id": "56dac56a5cc639de0a45c51b",
    "tags": [
        "mod",
        "rare",
        "pve",
        "pvp"
    ],
    "icon": "icons/en/Mesa’s_Waltz.d6c93034e5a61cb41cf18a64466e3eec.png",
    "thumb": "icons/en/thumbs/Mesa’s_Waltz.d6c93034e5a61cb41cf18a64466e3eec.128x128.png",
    "icon_format": "port",
    "url_name": "mesa’s_waltz",
    "tradable": true,
    "en": {
        "item_name": "Mesa’s Waltz",
        "description": "<p>Mesa's Waltz is a Warframe Augment Mod usable in both PvE and PvP that allows Mesa to move at half speed while channeling Peacemaker.</p>",
        "wiki_link": "http://warframe.wikia.com/wiki/Mesa%27s_Waltz",
        "drop": [
            {
                "name": "Steel Meridian",
                "link": null
            },
            {
                "name": "Red Veil",
                "link": null
            }
        ]
    },
    "ru": {
        "item_name": "Вальс Мисы",
        "description": "<p>Вальс Мисы — мод-аугмент для способности Мисы Миротворец, который позволяет ей передвигаться при использовании данной способности, со скоростью равной 50% от ее скорости передвижения.</p>",
        "wiki_link": "http://ru.warframe.wikia.com/wiki/%D0%92%D0%B0%D0%BB%D1%8C%D1%81_%D0%9C%D0%B8%D1%81%D1%8B",
        "icon": null,
        "thumb": null,
        "drop": [
            {
                "name": "Стальной Меридиан",
                "link": null
            },
            {
                "name": "Красная Вуаль",
                "link": null
            }
        ]
    },
    "rarity": "rare",
    "mod_max_rank": 3,
    "trading_tax": 8000
}