{
    "_id": "5b50a3b23a84fd02a7823252",
    "tags": [
        "mod",
        "pve",
        "rare"
    ],
    "icon": "icons/en/Partitioned_Mallet.e43558fc4eae736abf25f156f62cf517.png",
    "thumb": "icons/en/thumbs/Partitioned_Mallet.e43558fc4eae736abf25f156f62cf517.128x128.png",
    "icon_format": "port",
    "url_name": "partitioned_mallet",
    "tradable": true,
    "en": {
        "item_name": "Partitioned Mallet",
        "description": "<p>Partitioned Mallet is a Warframe Augment Mod for Octavia that allows her to spawn two Mallets with reduced range.</p>",
        "wiki_link": "http://warframe.wikia.com/wiki/Partitioned_Mallet",
        "drop": [
            {
                "name": "Cephalon Suda",
                "link": null
            },
            {
                "name": "New Loka",
                "link": null
            }
        ]
    },
    "ru": {
        "item_name": "Разделённый Молот",
        "description": "<p>Разделенный молот — мод-аугмент для Варфрейма Октавия, изменяющий способность Молот. Позволяет создавать два молота одновременно, но при этом у них будет уменьшенный на 50% радиус.</p>",
        "wiki_link": "http://ru.warframe.wikia.com/wiki/%D0%A0%D0%B0%D0%B7%D0%B4%D0%B5%D0%BB%D1%91%D0%BD%D0%BD%D1%8B%D0%B9_%D0%9C%D0%BE%D0%BB%D0%BE%D1%82",
        "icon": "icons/ru/Partitioned_Mallet.75123aefc1cefc989b27ba2bd167047e.png",
        "thumb": "icons/ru/thumbs/Partitioned_Mallet.75123aefc1cefc989b27ba2bd167047e.128x128.png",
        "drop": [
            {
                "name": "Цефалон Суда",
                "link": null
            },
            {
                "name": "Новая Лока",
                "link": null
            }
        ]
    },
    "rarity": "rare",
    "mod_max_rank": 3,
    "trading_tax": 8000
}