{
    "_id": "5bf54b483ffcc7066e7eb856",
    "tags": [
        "arcane enhancements",
        "kitgun"
    ],
    "icon": "icons/en/Pax_Soar.b1cec46096b57bd8c82c974fbd376baa.png",
    "thumb": "icons/en/thumbs/Pax_Soar.b1cec46096b57bd8c82c974fbd376baa.128x128.png",
    "icon_format": "land",
    "url_name": "pax_soar",
    "tradable": true,
    "en": {
        "item_name": "Pax Soar",
        "description": "<p>Pax Soar is an Arcane Enhancement for a Kitgun that increases accuracy, reduces recoil, and increases the player's aim glide and wall latch time.</p>",
        "wiki_link": "https://warframe.fandom.com/wiki/Pax_Soar",
        "drop": []
    },
    "ru": {
        "item_name": "Pax Soar",
        "description": "<p>Pax Soar is an Arcane Enhancement for a Kitgun that increases accuracy, reduces recoil, and increases the player's aim glide and wall latch time.</p>",
        "wiki_link": "https://warframe.fandom.com/wiki/Pax_Soar",
        "icon": null,
        "thumb": null,
        "drop": []
    },
    "mod_max_rank": 3
}