{
    "_id": "585a93312c2ada00552edf0f",
    "tags": [
        "mod",
        "pvp",
        "rare"
    ],
    "icon": "icons/en/Precision_Munition.475b011473c1252788f6d63a43dfa651.png",
    "thumb": "icons/en/thumbs/Precision_Munition.475b011473c1252788f6d63a43dfa651.128x128.png",
    "icon_format": "port",
    "url_name": "precision_munition",
    "tradable": true,
    "en": {
        "item_name": "Precision Munition",
        "description": "<p>Precision Munition is PvP-exclusive Tonkor mod which increases its accuracy by 100%, flight speed by 50% but reduces magazine capacity by 50%.</p>",
        "wiki_link": "http://warframe.wikia.com/wiki/Precision_Munition",
        "drop": [
            {
                "name": "Conclave Mission Reward",
                "link": null
            }
        ]
    },
    "ru": {
        "item_name": "Меткие Боеприпасы",
        "description": "<p>Меткие боеприпасы - редкий мод для основного оружия Тонкор в режиме конклава, который дает 100% точности выстрела и 50% скорости полета снаряда, но при этом уменшает количество боеприпасов на 50%.</p>",
        "wiki_link": "http://ru.warframe.wikia.com/wiki/%D0%9C%D0%B5%D1%82%D0%BA%D0%B8%D0%B5_%D0%91%D0%BE%D0%B5%D0%BF%D1%80%D0%B8%D0%BF%D0%B0%D1%81%D1%8B",
        "icon": "icons/ru/Precision_Munition.644c73b44e0c929043da0131ad3aa80f.png",
        "thumb": "icons/ru/thumbs/Precision_Munition.644c73b44e0c929043da0131ad3aa80f.128x128.png",
        "drop": [
            {
                "name": "Награда за миссии Конклава",
                "link": null
            }
        ]
    },
    "rarity": "rare",
    "trading_tax": 8000
}