{
    "_id": "5bbcec53f639cf007b7357cf",
    "tags": [
        "mod",
        "pistol",
        "prime",
        "legendary"
    ],
    "icon": "icons/en/Primed_Expel_Corrupted.8c7d6df438f5bf500adda9c1745190fc.png",
    "thumb": "icons/en/thumbs/Primed_Expel_Corrupted.8c7d6df438f5bf500adda9c1745190fc.128x128.png",
    "icon_format": "port",
    "url_name": "primed_expel_corrupted",
    "tradable": true,
    "en": {
        "item_name": "Primed Expel Corrupted",
        "description": "<p>Primed Expel Corrupted increases the damage of secondary weapons against Corrupted. The mod increases both the base damage and elemental damage of a weapon.</p>",
        "wiki_link": "http://warframe.wikia.com/wiki/Primed_Expel_Corrupted",
        "drop": [
            {
                "name": "Baro Ki'Teer",
                "link": null
            }
        ]
    },
    "ru": {
        "item_name": "Изгнание Прайм: Порабощённые",
        "description": "<p>Изгнание Прайм: Порабощённые — легендарный мод для вторичного оружия, увеличивающий наносимый урон по противникам фракции Порабощённые.</p>",
        "wiki_link": "http://ru.warframe.wikia.com/wiki/%D0%98%D0%B7%D0%B3%D0%BD%D0%B0%D0%BD%D0%B8%D0%B5_%D0%9F%D1%80%D0%B0%D0%B9%D0%BC%3A_%D0%9F%D0%BE%D1%80%D0%B0%D0%B1%D0%BE%D1%89%D1%91%D0%BD%D0%BD%D1%8B%D0%B5",
        "icon": null,
        "thumb": null,
        "drop": [
            {
                "name": "Baro Ki'Teer",
                "link": null
            }
        ]
    },
    "rarity": "legendary",
    "mod_max_rank": 10,
    "trading_tax": 1000000
}