{
    "_id": "54c686fee7798913eda0615b",
    "tags": [
        "void trader",
        "special weapons"
    ],
    "icon": "icons/en/Prisma_Gorgon.3d4fdb4c17592d735ccdad21868d3019.png",
    "thumb": "icons/en/thumbs/Prisma_Gorgon.3d4fdb4c17592d735ccdad21868d3019.128x128.png",
    "icon_format": "land",
    "url_name": "prisma_gorgon",
    "tradable": true,
    "en": {
        "item_name": "Prisma Gorgon",
        "description": "<p>The Prisma Gorgon is a variant of the Gorgon light machine gun that features a unique Prisma skin and modified stats, which dependent on current trades, can be temporarily available from the Void Trader, Baro Ki'Teer. Like its predecessor, the Prisma Gorgon sports a sizable magazine size with a high rate of fire, offset by the spooling time and long reload time. Notably, the Prisma Gorgon grants higher magazine and ammo reserve values along with its other boosted stats over its predecessor.</p>",
        "wiki_link": "http://warframe.wikia.com/wiki/Prisma_Gorgon",
        "drop": [],
        "codex": "Adorned with void hardened prisma crystal, this Gorgon variant is prized for its beauty and enhanced mechanics."
    },
    "ru": {
        "item_name": "Горгона призма",
        "description": "<p>Улучшенная закаленным призматическим кристаллом из Бездны, эта Горгона ценится за свою красоту и улучшенную механику.</p>",
        "wiki_link": "http://ru.warframe.wikia.com/wiki/%D0%93%D0%BE%D1%80%D0%B3%D0%BE%D0%BD%D0%B0_%D0%BF%D1%80%D0%B8%D0%B7%D0%BC%D0%B0",
        "icon": null,
        "thumb": null,
        "drop": []
    },
    "mastery_level": 11,
    "trading_tax": 2000
}