{
    "_id": "5be5f5a13ffcc7038857f113",
    "tags": [
        "mod",
        "fist",
        "conclave",
        "pvp"
    ],
    "icon": "icons/en/Quaking_Hand.69455f72d16710b8f7f33a9bfa5d9047.png",
    "thumb": "icons/en/thumbs/Quaking_Hand.69455f72d16710b8f7f33a9bfa5d9047.128x128.png",
    "icon_format": "port",
    "url_name": "quaking_hand",
    "tradable": true,
    "en": {
        "item_name": "Quaking Hand",
        "description": "<p>Fighting form devised for Conclave.</p>",
        "wiki_link": "https://warframe.fandom.com/wiki/Quaking_Hand",
        "drop": []
    },
    "ru": {
        "item_name": "Quaking Hand",
        "description": "<p>Fighting form devised for Conclave.</p>",
        "wiki_link": "https://warframe.fandom.com/wiki/Quaking_Hand",
        "icon": null,
        "thumb": null,
        "drop": []
    },
    "rarity": "uncommon",
    "mod_max_rank": 3,
    "trading_tax": 4000
}