{
    "_id": "5b00231bac0f7e006fd6f7b3",
    "tags": [
        "mod",
        "rare"
    ],
    "icon": "icons/en/Reawaken.dff42d332f0bd30ccf2ff5e89988e120.png",
    "thumb": "icons/en/thumbs/Reawaken.dff42d332f0bd30ccf2ff5e89988e120.128x128.png",
    "icon_format": "port",
    "url_name": "reawaken",
    "tradable": true,
    "en": {
        "item_name": "Reawaken",
        "description": "<p>Reawaken allows Djinn to automatically revive itself after a short period when killed.</p>",
        "wiki_link": "http://warframe.wikia.com/wiki/Reawaken",
        "drop": [
            {
                "name": "Simaris Offerings",
                "link": null
            }
        ]
    },
    "ru": {
        "item_name": "Reawaken",
        "description": "<p>Reawaken allows Djinn to automatically revive itself after a short period when killed.</p>",
        "wiki_link": "http://warframe.wikia.com/wiki/Reawaken",
        "icon": null,
        "thumb": null,
        "drop": [
            {
                "name": "Simaris Offerings",
                "link": null
            }
        ]
    },
    "rarity": "rare",
    "mod_max_rank": 5,
    "trading_tax": 8000
}