{
    "_id": "5be5f59e3ffcc7038857f0f7",
    "tags": [
        "mod",
        "taxon",
        "sentinel"
    ],
    "icon": "icons/en/Retarget.e802d9ef2a80170437fdb51998e7078d.png",
    "thumb": "icons/en/thumbs/Retarget.e802d9ef2a80170437fdb51998e7078d.128x128.png",
    "icon_format": "port",
    "url_name": "retarget",
    "tradable": true,
    "en": {
        "item_name": "Retarget",
        "description": "<p>Retarget is a precept mod for the Taxon Sentinel that allows it to attack the first enemy that comes into range with its primary weapon.</p>",
        "wiki_link": "https://warframe.fandom.com/wiki/Retarget",
        "drop": []
    },
    "ru": {
        "item_name": "Retarget",
        "description": "<p>Retarget is a precept mod for the Taxon Sentinel that allows it to attack the first enemy that comes into range with its primary weapon.</p>",
        "wiki_link": "https://warframe.fandom.com/wiki/Retarget",
        "icon": null,
        "thumb": null,
        "drop": []
    },
    "rarity": "common",
    "mod_max_rank": 5,
    "trading_tax": 2000
}