{
    "_id": "567af35fcbfa8f05d076a4f3",
    "tags": [
        "pvp",
        "mod",
        "uncommon"
    ],
    "icon": "icons/en/Sharpened_Blade.d41298d6bb8919cb55975048c052a5bf.png",
    "thumb": "icons/en/thumbs/Sharpened_Blade.d41298d6bb8919cb55975048c052a5bf.128x128.png",
    "icon_format": "port",
    "url_name": "sharpened_blade",
    "tradable": true,
    "en": {
        "item_name": "Sharpened Blade",
        "description": "<p>Sharpened Blade is a PvP exclusive Melee Mod that converts an amount of physical damage to Slash damage.</p>",
        "wiki_link": "http://warframe.wikia.com/wiki/Sharpened_Blade",
        "drop": [
            {
                "name": "Conclave Offering",
                "link": null
            }
        ]
    },
    "ru": {
        "item_name": "Заострённое Лезвие",
        "description": "<p>Заострённое Лезвие — необычный мод для оружия ближнего боя в режиме конклава, который преобразует % базового урона в  режущий. </p>",
        "wiki_link": "http://ru.warframe.wikia.com/wiki/%D0%97%D0%B0%D0%BE%D1%81%D1%82%D1%80%D1%91%D0%BD%D0%BD%D0%BE%D0%B5_%D0%BB%D0%B5%D0%B7%D0%B2%D0%B8%D0%B5",
        "icon": "icons/ru/Sharpened_Blade.80d98ed58b7bc4ec4f44f80bbc2f205b.png",
        "thumb": "icons/ru/thumbs/Sharpened_Blade.80d98ed58b7bc4ec4f44f80bbc2f205b.128x128.png",
        "drop": [
            {
                "name": "Conclave Offering",
                "link": null
            }
        ]
    },
    "rarity": "uncommon",
    "mod_max_rank": 3,
    "trading_tax": 4000
}