{
    "_id": "5bd05ad13ffcc700eb7cfd00",
    "tags": [
        "scene"
    ],
    "icon": "icons/en/Silver_Grove_Shrine_Scene.0a4ae82615826416321cadf03170ff2d.png",
    "thumb": "icons/en/thumbs/Silver_Grove_Shrine_Scene.0a4ae82615826416321cadf03170ff2d.128x128.png",
    "icon_format": "land",
    "url_name": "silver_grove_shrine_scene",
    "tradable": true,
    "en": {
        "item_name": "Silver Grove Shrine Scene",
        "description": "<p>Captura is an image capture and editing tool that allows players to manipulate and compose scenarios for screenshots.</p>",
        "wiki_link": "http://warframe.wikia.com/wiki/Captura",
        "drop": [
            {
                "name": "New Loka",
                "link": null
            }
        ]
    },
    "ru": {
        "item_name": "Silver Grove Shrine Scene",
        "description": "<p>Специальный режим, позволяющий делать красочные снимки.<br/>Для использования режима необходимо войти во Внешний вид и нажать Каптура.</p>",
        "wiki_link": "http://ru.warframe.wikia.com/wiki/%D0%9A%D0%B0%D0%BF%D1%82%D1%83%D1%80%D0%B0",
        "icon": null,
        "thumb": null,
        "drop": [
            {
                "name": "Новая Лока",
                "link": null
            }
        ]
    },
    "trading_tax": 2000
}