{
    "_id": "5ba9f2034567de01415f638c",
    "tags": [
        "imprint",
        "kavat",
        "smeeta"
    ],
    "icon": "icons/en/Smeeta_Kavat_Imprint.0e793612eeed6e1d39d98a8f4835c3d2.png",
    "thumb": "icons/en/thumbs/Smeeta_Kavat_Imprint.0e793612eeed6e1d39d98a8f4835c3d2.128x128.png",
    "icon_format": "land",
    "url_name": "smeeta_kavat_imprint",
    "tradable": true,
    "en": {
        "item_name": "Smeeta Kavat Imprint",
        "description": "<p>This sly feline is playful yet devious.</p>",
        "wiki_link": "http://warframe.wikia.com/wiki/Kavat#Smeeta%20Kavat",
        "drop": []
    },
    "ru": {
        "item_name": "Смита Кават Отпечаток",
        "description": "<p>Это хитрое существо из семейства кошачьих игриво, но настолько же и коварно.</p>",
        "wiki_link": "http://ru.warframe.wikia.com/wiki/%D0%9A%D0%B0%D0%B2%D0%B0%D1%82#%D0%A1%D0%BC%D0%B8%D1%82%D0%B0",
        "icon": null,
        "thumb": null,
        "drop": []
    },
    "trading_tax": 4000
}