{
    "_id": "5be701133ffcc703e462c705",
    "tags": [
        "mod",
        "k-drive"
    ],
    "icon": "icons/en/Sonic_Boost.1d8b60d68abe5ff3a695d9a624470305.png",
    "thumb": "icons/en/thumbs/Sonic_Boost.1d8b60d68abe5ff3a695d9a624470305.128x128.png",
    "icon_format": "port",
    "url_name": "sonic_boost",
    "tradable": true,
    "en": {
        "item_name": "Sonic Boost",
        "description": "<p>Every 40s, boosting will release a shockwave, stunning enemies in 1m.</p>",
        "wiki_link": null,
        "drop": []
    },
    "ru": {
        "item_name": "Sonic Boost",
        "description": "<p>Every 40s, boosting will release a shockwave, stunning enemies in 1m.</p>",
        "wiki_link": null,
        "icon": null,
        "thumb": null,
        "drop": []
    },
    "rarity": "rare",
    "mod_max_rank": 3,
    "trading_tax": 8000
}