{
    "_id": "54a74454e779892d5e5155c8",
    "tags": [
        "mod",
        "aura",
        "uncommon"
    ],
    "icon": "icons/en/Sprint_Boost.8474e070e14952636fcf1a5f8f084bd0.png",
    "thumb": "icons/en/thumbs/Sprint_Boost.8474e070e14952636fcf1a5f8f084bd0.128x128.png",
    "icon_format": "port",
    "url_name": "sprint_boost",
    "tradable": true,
    "en": {
        "item_name": "Sprint Boost",
        "description": "<p>Sprint Boost is an Aura that increases sprint speed of Warframes.</p>",
        "wiki_link": "http://warframe.wikia.com/wiki/Sprint_Boost",
        "drop": [
            {
                "name": "Alerts",
                "link": null
            }
        ]
    },
    "ru": {
        "item_name": "Ускоритель",
        "description": "<p>Ускоритель  — необычная аура, которая увеличивает скорость спринта всех членов команды.</p>",
        "wiki_link": "http://ru.warframe.wikia.com/wiki/%D0%A3%D1%81%D0%BA%D0%BE%D1%80%D0%B8%D1%82%D0%B5%D0%BB%D1%8C",
        "icon": "icons/ru/Sprint_Boost.5557a83e4c37267110123e7ae78c3e8a.png",
        "thumb": "icons/ru/thumbs/Sprint_Boost.5557a83e4c37267110123e7ae78c3e8a.128x128.png",
        "drop": [
            {
                "name": "Alerts",
                "link": null
            }
        ]
    },
    "rarity": "uncommon",
    "mod_max_rank": 5,
    "trading_tax": 4000
}