{
    "_id": "5be4b0a43ffcc703294e76af",
    "tags": [
        "mod",
        "sentinel"
    ],
    "icon": "icons/en/Synth_Deconstruct.5b8b6fd9a3910eabfd4b2b3a7a054728.png",
    "thumb": "icons/en/thumbs/Synth_Deconstruct.5b8b6fd9a3910eabfd4b2b3a7a054728.128x128.png",
    "icon_format": "port",
    "url_name": "synth_deconstruct",
    "tradable": true,
    "en": {
        "item_name": "Synth Deconstruct",
        "description": "<p>Synth Deconstruct - Sentinel: Enemies killed by Sentinel have +15% chance to drop a Health Orb</p><p>Set Bonus: +20% Clip Reloaded/sec while Primary or Secondary weapons are holstered</p>",
        "wiki_link": "http://warframe.fandom.com/wiki/Synth_Deconstruct",
        "drop": []
    },
    "ru": {
        "item_name": "Synth Deconstruct",
        "description": "<p>Synth Deconstruct - Sentinel: Enemies killed by Sentinel have +15% chance to drop a Health Orb</p><p>Set Bonus: +20% Clip Reloaded/sec while Primary or Secondary weapons are holstered</p>",
        "wiki_link": "http://warframe.fandom.com/wiki/Synth_Deconstruct",
        "icon": null,
        "thumb": null,
        "drop": []
    },
    "rarity": "rare",
    "mod_max_rank": 5,
    "trading_tax": 8000
}