{
    "_id": "5be4b0a53ffcc703294e76b9",
    "tags": [
        "mod",
        "pistol"
    ],
    "icon": "icons/en/Synth_Charge.5108757b443054c6511a85ba8e3c9733.png",
    "thumb": "icons/en/thumbs/Synth_Charge.5108757b443054c6511a85ba8e3c9733.128x128.png",
    "icon_format": "port",
    "url_name": "synth_charge",
    "tradable": true,
    "en": {
        "item_name": "Synth Charge",
        "description": "<p>Synth Charge - Pistol: +80% Bonus Damage on last shot in clip</p><p>Set Bonus: +20% Clip Reloaded/sec while Primary or Secondary weapons are holstered</p>",
        "wiki_link": "http://warframe.fandom.com/wiki/Synth_Charge",
        "drop": []
    },
    "ru": {
        "item_name": "Synth Charge",
        "description": "<p>Synth Charge - Pistol: +80% Bonus Damage on last shot in clip</p><p>Set Bonus: +20% Clip Reloaded/sec while Primary or Secondary weapons are holstered</p>",
        "wiki_link": "http://warframe.fandom.com/wiki/Synth_Charge",
        "icon": null,
        "thumb": null,
        "drop": []
    },
    "rarity": "rare",
    "mod_max_rank": 3,
    "trading_tax": 8000
}