{
    "_id": "5be4b0a53ffcc703294e76b6",
    "tags": [
        "mod",
        "sentinel"
    ],
    "icon": "icons/en/Synth_Fiber.b557fbf568aa0072177f372c020ad020.png",
    "thumb": "icons/en/thumbs/Synth_Fiber.b557fbf568aa0072177f372c020ad020.128x128.png",
    "icon_format": "port",
    "url_name": "synth_fiber",
    "tradable": true,
    "en": {
        "item_name": "Synth Fiber",
        "description": "<p>Synth Fiber - Sentinel: Health Orbs increase Sentinel Armour by 100% for 12 seconds</p><p>Set Bonus: +20% Clip Reloaded/sec while Primary or Secondary weapons are holstered</p>",
        "wiki_link": "http://warframe.fandom.com/wiki/Synth_Fiber",
        "drop": []
    },
    "ru": {
        "item_name": "Synth Fiber",
        "description": "<p>Synth Fiber - Sentinel: Health Orbs increase Sentinel Armour by 100% for 12 seconds</p><p>Set Bonus: +20% Clip Reloaded/sec while Primary or Secondary weapons are holstered</p>",
        "wiki_link": "http://warframe.fandom.com/wiki/Synth_Fiber",
        "icon": null,
        "thumb": null,
        "drop": []
    },
    "rarity": "rare",
    "mod_max_rank": 3,
    "trading_tax": 8000
}