{
    "_id": "54a74454e779892d5e515659",
    "tags": [
        "archwing melee",
        "mod",
        "common"
    ],
    "icon": "icons/en/Tempered_Blade.665882d312c78280d541f026a6f86393.png",
    "thumb": "icons/en/thumbs/Tempered_Blade.665882d312c78280d541f026a6f86393.128x128.png",
    "icon_format": "port",
    "url_name": "tempered_blade",
    "tradable": true,
    "en": {
        "item_name": "Tempered Blade",
        "description": "<p>Tempered Blade increases an Archwing melee weapon's Critical Chance by 25% per rank at a maximum of 150% at rank 5.</p>",
        "wiki_link": "http://warframe.wikia.com/wiki/Tempered_Blade",
        "drop": [
            {
                "name": "CorpusRanger",
                "link": null
            },
            {
                "name": "CorpusQuanta Ranger",
                "link": null
            },
            {
                "name": "CorpusPenta Ranger",
                "link": null
            },
            {
                "name": "CorpusFrigate",
                "link": null
            },
            {
                "name": "Archwing Sabotage Reward",
                "link": null
            },
            {
                "name": "Archwing Interception Reward",
                "link": null
            }
        ]
    },
    "ru": {
        "item_name": "Закалённый клинок",
        "description": "<p>Закалённый Клинок — обычный мод для оружия ближнего боя арчвинг, который  увеличивает шанс критического удара.</p>",
        "wiki_link": "http://ru.warframe.wikia.com/wiki/%D0%97%D0%B0%D0%BA%D0%B0%D0%BB%D1%91%D0%BD%D0%BD%D1%8B%D0%B9_%D0%BA%D0%BB%D0%B8%D0%BD%D0%BE%D0%BA",
        "icon": "icons/ru/Tempered_Blade.86d779202cec320b7b058106e7489aac.png",
        "thumb": "icons/ru/thumbs/Tempered_Blade.86d779202cec320b7b058106e7489aac.128x128.png",
        "drop": [
            {
                "name": "CorpusRanger",
                "link": null
            },
            {
                "name": "CorpusQuanta Ranger",
                "link": null
            },
            {
                "name": "CorpusPenta Ranger",
                "link": null
            },
            {
                "name": "CorpusFrigate",
                "link": null
            },
            {
                "name": "Archwing Sabotage Reward",
                "link": null
            },
            {
                "name": "Archwing Interception Reward",
                "link": null
            }
        ]
    },
    "rarity": "common",
    "mod_max_rank": 5,
    "trading_tax": 2000
}