{
    "_id": "54a74454e779892d5e51562b",
    "tags": [
        "pve",
        "mod",
        "rare"
    ],
    "icon": "icons/en/Tesla_Link.ae76daeadd2c8a2d61c0b33788d94e55.png",
    "thumb": "icons/en/thumbs/Tesla_Link.ae76daeadd2c8a2d61c0b33788d94e55.128x128.png",
    "icon_format": "port",
    "url_name": "tesla_link",
    "tradable": true,
    "en": {
        "item_name": "Tesla Link",
        "description": "<p>Tesla Link is a Warframe Augment Mod for Vauban that makes each pair of Tesla balls form energy links between each other that deal  Slash damage upon contact.</p>",
        "wiki_link": "http://warframe.wikia.com/wiki/Tesla_Link",
        "drop": [
            {
                "name": "The Perrin Sequence",
                "link": null
            },
            {
                "name": "Cephalon Suda",
                "link": null
            }
        ]
    },
    "ru": {
        "item_name": "Цепь тесла",
        "description": "<p>Цепь Тесла — мод-аугмент для варфрейма Вобан и Вобан Прайм, улучшающий его способность Тесла. Каждая пара гранат Тесла будет создавать луч, наносящий   режущий урон при контакте с врагом.</p>",
        "wiki_link": "http://ru.warframe.wikia.com/wiki/%D0%A6%D0%B5%D0%BF%D1%8C_%D1%82%D0%B5%D1%81%D0%BB%D0%B0",
        "icon": "icons/ru/Tesla_Link.7129d455748214ff32a120baec727af3.png",
        "thumb": "icons/ru/thumbs/Tesla_Link.7129d455748214ff32a120baec727af3.128x128.png",
        "drop": [
            {
                "name": "The Perrin Sequence",
                "link": null
            },
            {
                "name": "Cephalon Suda",
                "link": null
            }
        ]
    },
    "rarity": "rare",
    "mod_max_rank": 3,
    "trading_tax": 8000
}