{
    "_id": "5ab167b7b2b6a80475780fb1",
    "tags": [
        "parts",
        "prime",
        "barrel"
    ],
    "icon": "icons/en/Tiberon_Prime_Set.53f3cf1c68314c0555fbb7020d01f001.png",
    "thumb": "icons/en/thumbs/Tiberon_Prime_Set.53f3cf1c68314c0555fbb7020d01f001.128x128.png",
    "icon_format": "land",
    "sub_icon": "sub_icons/barrel_128x128.png",
    "url_name": "tiberon_prime_barrel",
    "tradable": true,
    "part_of_set": [
        "5ab167b8b2b6a80475780fc0",
        "5ab167b7b2b6a80475780fab",
        "5ab167b7b2b6a80475780fb1",
        "5ab167b8b2b6a80475780fb8",
        "5ab167b8b2b6a80475780fc6"
    ],
    "set_root": false,
    "en": {
        "item_name": "Tiberon Prime Barrel",
        "description": "<p>The Tiberon Prime is the Prime version of the three round burst-fire rifle, Tiberon.</p>",
        "wiki_link": "http://warframe.wikia.com/wiki/Tiberon_Prime",
        "drop": [
            {
                "name": "Meso T1 Rare",
                "link": null
            }
        ]
    },
    "ru": {
        "item_name": "Тайберон прайм Ствол",
        "description": "<p>Искусство встречается с изобретательностью в этой невероятно смертоносной винтовке.</p>",
        "wiki_link": "http://ru.warframe.wikia.com/wiki/%D0%A2%D0%B0%D0%B9%D0%B1%D0%B5%D1%80%D0%BE%D0%BD",
        "icon": null,
        "thumb": null,
        "drop": [
            {
                "name": "Мезо T1 Редкая",
                "link": null
            }
        ]
    },
    "mastery_level": 14,
    "ducats": 100,
    "trading_tax": 2000
}