{
    "_id": "5be5f59f3ffcc7038857f0fd",
    "tags": [
        "mod",
        "warframe",
        "umbra"
    ],
    "icon": "icons/en/Umbral_Fiber.91a81927fb3670e52d74d757170a5f60.png",
    "thumb": "icons/en/thumbs/Umbral_Fiber.91a81927fb3670e52d74d757170a5f60.128x128.png",
    "icon_format": "port",
    "url_name": "umbral_fiber",
    "tradable": true,
    "en": {
        "item_name": "Umbral Fiber",
        "description": "<p>Umbral Fiber is the Umbra variant of Steel Fiber, increasing a Warframe's armor and damage resistance to Sentients.</p>",
        "wiki_link": "https://warframe.fandom.com/wiki/Umbral_Fiber",
        "drop": []
    },
    "ru": {
        "item_name": "Umbral Fiber",
        "description": "<p>Umbral Fiber is the Umbra variant of Steel Fiber, increasing a Warframe's armor and damage resistance to Sentients.</p>",
        "wiki_link": "https://warframe.fandom.com/wiki/Umbral_Fiber",
        "icon": null,
        "thumb": null,
        "drop": []
    },
    "rarity": "legendary",
    "mod_max_rank": 10,
    "trading_tax": 1000000
}