{
    "_id": "5be5f59e3ffcc7038857f0f6",
    "tags": [
        "mod",
        "warframe",
        "umbra"
    ],
    "icon": "icons/en/Umbral_Intensify.a29a2af024050f3c3e29491e167a629c.png",
    "thumb": "icons/en/thumbs/Umbral_Intensify.a29a2af024050f3c3e29491e167a629c.128x128.png",
    "icon_format": "port",
    "url_name": "umbral_intensify",
    "tradable": true,
    "en": {
        "item_name": "Umbral Intensify",
        "description": "<p>Umbral Intensify is the Umbra variant of Intensify, increasing a Warframe's Power Strength and damage resistance to Sentients.</p>",
        "wiki_link": "https://warframe.fandom.com/wiki/Umbral_Intensify",
        "drop": []
    },
    "ru": {
        "item_name": "Umbral Intensify",
        "description": "<p>Umbral Intensify is the Umbra variant of Intensify, increasing a Warframe's Power Strength and damage resistance to Sentients.</p>",
        "wiki_link": "https://warframe.fandom.com/wiki/Umbral_Intensify",
        "icon": null,
        "thumb": null,
        "drop": []
    },
    "rarity": "legendary",
    "mod_max_rank": 10,
    "trading_tax": 1000000
}