{
    "_id": "5a04750a6c4655012038ddc5",
    "tags": [
        "arcane enhancements",
        "operator"
    ],
    "icon": "icons/en/Virtuos_Shadow.b6be77f2f40f28d66c86674233faea4d.png",
    "thumb": "icons/en/thumbs/Virtuos_Shadow.b6be77f2f40f28d66c86674233faea4d.128x128.png",
    "icon_format": "land",
    "url_name": "virtuos_shadow",
    "tradable": true,
    "en": {
        "item_name": "Virtuos Shadow",
        "description": "<p>Virtuos Shadow is an Arcane Enhancement for Operator Amps that grants a chance to increase Critical Chance on headshots.</p>",
        "wiki_link": "http://warframe.wikia.com/wiki/Virtuos_Shadow",
        "drop": []
    },
    "ru": {
        "item_name": "Виртуозная Тень",
        "description": "<p>Виртуозная Тень - мистификатор для Усилителя, который с некоторой вероятностью увеличивает шанс нанесения критического урона Усилителя при выстреле в голову противника.</p>",
        "wiki_link": "http://ru.warframe.wikia.com/wiki/%D0%92%D0%B8%D1%80%D1%82%D1%83%D0%BE%D0%B7%D0%BD%D0%B0%D1%8F_%D0%A2%D0%B5%D0%BD%D1%8C",
        "icon": null,
        "thumb": null,
        "drop": []
    },
    "mod_max_rank": 3,
    "trading_tax": 0
}