{
    "_id": "5a04750a6c4655012038ddc6",
    "tags": [
        "arcane enhancements",
        "operator"
    ],
    "icon": "icons/en/Virtuos_Fury.f71902bf678d290ad03b625dc35834ca.png",
    "thumb": "icons/en/thumbs/Virtuos_Fury.f71902bf678d290ad03b625dc35834ca.128x128.png",
    "icon_format": "land",
    "url_name": "virtuos_fury",
    "tradable": true,
    "en": {
        "item_name": "Virtuos Fury",
        "description": "<p>Virtuos Fury is an Arcane Enhancement for Operator Amps that grants a chance at increased damage after inflicting a Status Effect.</p>",
        "wiki_link": "http://warframe.wikia.com/wiki/Virtuos_Fury",
        "drop": []
    },
    "ru": {
        "item_name": "Виртуозная Ярость",
        "description": "<p>Виртуозная Ярость - мистификатор для Усилителя, который с некоторым шансом увеличивает урон Усилителя при срабатывании эффекта статуса.</p>",
        "wiki_link": "http://ru.warframe.wikia.com/wiki/%D0%92%D0%B8%D1%80%D1%82%D1%83%D0%BE%D0%B7%D0%BD%D0%B0%D1%8F_%D0%AF%D1%80%D0%BE%D1%81%D1%82%D1%8C",
        "icon": null,
        "thumb": null,
        "drop": []
    },
    "mod_max_rank": 3,
    "trading_tax": 0
}