{
    "_id": "5a04750a6c4655012038ddc7",
    "tags": [
        "arcane enhancements",
        "operator"
    ],
    "icon": "icons/en/Virtuos_Null.e3f5a968f4b41d236acad8c9efb8cfef.png",
    "thumb": "icons/en/thumbs/Virtuos_Null.e3f5a968f4b41d236acad8c9efb8cfef.128x128.png",
    "icon_format": "land",
    "url_name": "virtuos_null",
    "tradable": true,
    "en": {
        "item_name": "Virtuos Null",
        "description": "<p>Virtuos Null is an Arcane Enhancement for Operator Amps that grants a chance to increase Amp and Void Beam energy regeneration on kills.</p>",
        "wiki_link": "http://warframe.wikia.com/wiki/Virtuos_Null",
        "drop": []
    },
    "ru": {
        "item_name": "Виртуозная Пустота",
        "description": "<p>Виртуозная Пустота - мистификатор для Усилителя, который ускоряет регенерацию энергии Усилителя и луча бездны Оператора при убийстве противника.</p>",
        "wiki_link": "http://ru.warframe.wikia.com/wiki/%D0%92%D0%B8%D1%80%D1%82%D1%83%D0%BE%D0%B7%D0%BD%D0%B0%D1%8F_%D0%9F%D1%83%D1%81%D1%82%D0%BE%D1%82%D0%B0",
        "icon": null,
        "thumb": null,
        "drop": []
    },
    "mod_max_rank": 3,
    "trading_tax": 0
}