{
    "_id": "5be5f5a23ffcc7038857f11f",
    "tags": [
        "fish"
    ],
    "icon": "icons/en/Adorned_Kriller.842ceb1f475c2bde3276ec5cde8a9210.png",
    "thumb": "icons/en/thumbs/Adorned_Kriller.842ceb1f475c2bde3276ec5cde8a9210.128x128.png",
    "icon_format": "land",
    "url_name": "adorned_kriller",
    "tradable": true,
    "en": {
        "item_name": "Adorned Kriller",
        "description": "<p>Identifies organic threats to Corpus operations in the Aqua Systems and eliminates them. It can be found in the lake on Venus.</p>",
        "wiki_link": null,
        "drop": []
    },
    "ru": {
        "item_name": "Adorned Kriller",
        "description": "<p>Identifies organic threats to Corpus operations in the Aqua Systems and eliminates them. It can be found in the lake on Venus.</p>",
        "wiki_link": null,
        "icon": null,
        "thumb": null,
        "drop": []
    }
}