{
    "_id": "5be5f5a13ffcc7038857f111",
    "tags": [
        "fish"
    ],
    "icon": "icons/en/Adorned_Mirewinder.60c5977f239d98eed70a7d0f0e187e7d.png",
    "thumb": "icons/en/thumbs/Adorned_Mirewinder.60c5977f239d98eed70a7d0f0e187e7d.128x128.png",
    "icon_format": "land",
    "url_name": "adorned_mirewinder",
    "tradable": true,
    "en": {
        "item_name": "Adorned Mirewinder",
        "description": "<p>Surveys the water for impurities. It can be found in cave pools on Venus.</p>",
        "wiki_link": null,
        "drop": []
    },
    "ru": {
        "item_name": "Adorned Mirewinder",
        "description": "<p>Surveys the water for impurities. It can be found in cave pools on Venus.</p>",
        "wiki_link": null,
        "icon": null,
        "thumb": null,
        "drop": []
    }
}