{
    "_id": "5be5f5a13ffcc7038857f10c",
    "tags": [
        "fish"
    ],
    "icon": "icons/en/Basic_Brickie.a689ea25921f1d5bd340dd9b85aef6c4.png",
    "thumb": "icons/en/thumbs/Basic_Brickie.a689ea25921f1d5bd340dd9b85aef6c4.128x128.png",
    "icon_format": "port",
    "url_name": "basic_brickie",
    "tradable": true,
    "en": {
        "item_name": "Basic Brickie",
        "description": "<p>Developed to perform remote construction and maintenance routines. It can be found in ponds around Venus.</p>",
        "wiki_link": null,
        "drop": []
    },
    "ru": {
        "item_name": "Basic Brickie",
        "description": "<p>Developed to perform remote construction and maintenance routines. It can be found in ponds around Venus.</p>",
        "wiki_link": null,
        "icon": null,
        "thumb": null,
        "drop": []
    }
}