{
    "_id": "5be5f5a13ffcc7038857f115",
    "tags": [
        "fish"
    ],
    "icon": "icons/en/Basic_Charamote.b286c50157dab258226f99047e74448d.png",
    "thumb": "icons/en/thumbs/Basic_Charamote.b286c50157dab258226f99047e74448d.128x128.png",
    "icon_format": "port",
    "url_name": "basic_charamote",
    "tradable": true,
    "en": {
        "item_name": "Basic Charamote",
        "description": "<p>Its primary function is to reconstruct the bio-material used to regenerate Orokin structures. It can be found in cave pools on Venus.</p>",
        "wiki_link": null,
        "drop": []
    },
    "ru": {
        "item_name": "Basic Charamote",
        "description": "<p>Its primary function is to reconstruct the bio-material used to regenerate Orokin structures. It can be found in cave pools on Venus.</p>",
        "wiki_link": null,
        "icon": null,
        "thumb": null,
        "drop": []
    }
}