{
    "_id": "5be5f5a33ffcc7038857f125",
    "tags": [
        "fish"
    ],
    "icon": "icons/en/Basic_Tink.70589c46f851bfa229a59078a97ed6e9.png",
    "thumb": "icons/en/thumbs/Basic_Tink.70589c46f851bfa229a59078a97ed6e9.128x128.png",
    "icon_format": "port",
    "url_name": "basic_tink",
    "tradable": true,
    "en": {
        "item_name": "Basic Tink",
        "description": "<p>Repairs robotics that have broken down in the aqua systems. It can be found in ponds around Venus.</p>",
        "wiki_link": null,
        "drop": []
    },
    "ru": {
        "item_name": "Basic Tink",
        "description": "<p>Repairs robotics that have broken down in the aqua systems. It can be found in ponds around Venus.</p>",
        "wiki_link": null,
        "icon": null,
        "thumb": null,
        "drop": []
    }
}