{
    "_id": "5be5f5a33ffcc7038857f124",
    "tags": [
        "mod",
        "hammers",
        "conclave",
        "pvp"
    ],
    "icon": "icons/en/Crashing_Havoc.ca855ed1b2e26b6f75e117338ab90dbb.png",
    "thumb": "icons/en/thumbs/Crashing_Havoc.ca855ed1b2e26b6f75e117338ab90dbb.128x128.png",
    "icon_format": "port",
    "url_name": "crashing_havoc",
    "tradable": true,
    "en": {
        "item_name": "Crashing Havoc",
        "description": "<p>Fighting form devised for Conclave.</p>",
        "wiki_link": "https://warframe.fandom.com/wiki/Crashing_Havoc",
        "drop": []
    },
    "ru": {
        "item_name": "Crashing Havoc",
        "description": "<p>Fighting form devised for Conclave.</p>",
        "wiki_link": "https://warframe.fandom.com/wiki/Crashing_Havoc",
        "icon": null,
        "thumb": null,
        "drop": []
    },
    "rarity": "uncommon",
    "mod_max_rank": 3,
    "trading_tax": 4000
}