{
    "_id": "5a04750b6c4655012038ddc9",
    "tags": [
        "arcane enhancements",
        "zaw"
    ],
    "icon": "icons/en/Exodia_Force.3777cf3132503f972624ac56c1731743.png",
    "thumb": "icons/en/thumbs/Exodia_Force.3777cf3132503f972624ac56c1731743.128x128.png",
    "icon_format": "land",
    "url_name": "exodia_force",
    "tradable": true,
    "en": {
        "item_name": "Exodia Force",
        "description": "<p>Exodia Force is an Arcane Enhancement for Zaw's that grants a chance to cause a radial blast around the player, inflicting a percentage of weapon damage to targets within range when inflicting a Status Effect.</p>",
        "wiki_link": "http://warframe.wikia.com/wiki/Exodia_Force",
        "drop": []
    },
    "ru": {
        "item_name": "Сила Эксодии",
        "description": "<p>Сила Эксодии - мистификатор для Зо, который при наложении эффекта статуса наносит урон противникам в определенном радиусе.</p>",
        "wiki_link": "http://ru.warframe.wikia.com/wiki/%D0%A1%D0%B8%D0%BB%D0%B0_%D0%AD%D0%BA%D1%81%D0%BE%D0%B4%D0%B8%D0%B8",
        "icon": null,
        "thumb": null,
        "drop": []
    },
    "mod_max_rank": 3,
    "trading_tax": 0
}