{
    "_id": "5a04750d6c4655012038ddcd",
    "tags": [
        "arcane enhancements",
        "zaw"
    ],
    "icon": "icons/en/Exodia_Might.255cbe521efd3aa7312e90e523b3c9ed.png",
    "thumb": "icons/en/thumbs/Exodia_Might.255cbe521efd3aa7312e90e523b3c9ed.128x128.png",
    "icon_format": "land",
    "url_name": "exodia_might",
    "tradable": true,
    "en": {
        "item_name": "Exodia Might",
        "description": "<p>Exodia Might is an Arcane Enhancement for Zaws that has a chance to grant lifesteal on finishers.</p>",
        "wiki_link": "http://warframe.wikia.com/wiki/Exodia_Might",
        "drop": []
    },
    "ru": {
        "item_name": "Мощь Эксодии",
        "description": "<p>Мощь Эксодии - мистификатор для Зо, который временно наделяет Зо эффектом кражи жизни при проведении добивающей атаки.</p>",
        "wiki_link": "http://ru.warframe.wikia.com/wiki/%D0%9C%D0%BE%D1%89%D1%8C_%D0%AD%D0%BA%D1%81%D0%BE%D0%B4%D0%B8%D0%B8",
        "icon": null,
        "thumb": null,
        "drop": []
    },
    "mod_max_rank": 3,
    "trading_tax": 0
}