{
    "_id": "5be5f59f3ffcc7038857f0ff",
    "tags": [
        "fish"
    ],
    "icon": "icons/en/Magnificent_Kriller.ce344a41c30096ca1a815f271c35ae79.png",
    "thumb": "icons/en/thumbs/Magnificent_Kriller.ce344a41c30096ca1a815f271c35ae79.128x128.png",
    "icon_format": "land",
    "url_name": "magnificent_kriller",
    "tradable": true,
    "en": {
        "item_name": "Magnificent Kriller",
        "description": "<p>Identifies organic threats to Corpus operations in the Aqua Systems and eliminates them. It can be found in the lake on Venus.</p>",
        "wiki_link": null,
        "drop": []
    },
    "ru": {
        "item_name": "Magnificent Kriller",
        "description": "<p>Identifies organic threats to Corpus operations in the Aqua Systems and eliminates them. It can be found in the lake on Venus.</p>",
        "wiki_link": null,
        "icon": null,
        "thumb": null,
        "drop": []
    }
}