{
    "_id": "5be5f59e3ffcc7038857f0fa",
    "tags": [
        "fish"
    ],
    "icon": "icons/en/Magnificent_Eye-Eye.05057c5c7fa4efe9ea5a8e3d7bc431a2.png",
    "thumb": "icons/en/thumbs/Magnificent_Eye-Eye.05057c5c7fa4efe9ea5a8e3d7bc431a2.128x128.png",
    "icon_format": "port",
    "url_name": "magnificent_eye_eye",
    "tradable": true,
    "en": {
        "item_name": "Magnificent Eye-Eye",
        "description": "<p>A surveillance drone that monitors any activity that disturbs the waters. It can be found in ponds around Venus.</p>",
        "wiki_link": null,
        "drop": []
    },
    "ru": {
        "item_name": "Magnificent Eye-Eye",
        "description": "<p>A surveillance drone that monitors any activity that disturbs the waters. It can be found in ponds around Venus.</p>",
        "wiki_link": null,
        "icon": null,
        "thumb": null,
        "drop": []
    }
}