{
    "_id": "5be5f5a43ffcc7038857f134",
    "tags": [
        "fish"
    ],
    "icon": "icons/en/Magnificent_Recaster.433ea020057924134c95868d7b4c98b8.png",
    "thumb": "icons/en/thumbs/Magnificent_Recaster.433ea020057924134c95868d7b4c98b8.128x128.png",
    "icon_format": "port",
    "url_name": "magnificent_recaster",
    "tradable": true,
    "en": {
        "item_name": "Magnificent Recaster",
        "description": "<p>Facilitates long-distance communication between robotics deployed in the aqua systems. It can be found in the ponds around Venus.</p>",
        "wiki_link": null,
        "drop": []
    },
    "ru": {
        "item_name": "Magnificent Recaster",
        "description": "<p>Facilitates long-distance communication between robotics deployed in the aqua systems. It can be found in the ponds around Venus.</p>",
        "wiki_link": null,
        "icon": null,
        "thumb": null,
        "drop": []
    }
}