{
    "_id": "5be4b0a53ffcc703294e76b3",
    "tags": [
        "mod",
        "aura"
    ],
    "icon": "icons/en/Mecha_Empowered.9f9764d5ca385fc060e0ac5c68daa611.png",
    "thumb": "icons/en/thumbs/Mecha_Empowered.9f9764d5ca385fc060e0ac5c68daa611.128x128.png",
    "icon_format": "port",
    "url_name": "mecha_empowered",
    "tradable": true,
    "en": {
        "item_name": "Mecha Empowered",
        "description": "<p>Mecha Empowered - Aura: +40% Extra Damage vs Marked Enemies.</p><p>Set Bonus: Kubrow marks an enemy every 15 secs for 12 secs. Killing this enemy applies all status effects on them to other enemies within 30m.</p>",
        "wiki_link": "http://warframe.fandom.com/wiki/Mecha_Empowered",
        "drop": []
    },
    "ru": {
        "item_name": "Mecha Empowered",
        "description": "<p>Mecha Empowered - Aura: +40% Extra Damage vs Marked Enemies.</p><p>Set Bonus: Kubrow marks an enemy every 15 secs for 12 secs. Killing this enemy applies all status effects on them to other enemies within 30m.</p>",
        "wiki_link": "http://warframe.fandom.com/wiki/Mecha_Empowered",
        "icon": null,
        "thumb": null,
        "drop": []
    },
    "rarity": "rare",
    "mod_max_rank": 5,
    "trading_tax": 8000
}