{
    "_id": "5be4b0a53ffcc703294e76ba",
    "tags": [
        "mod",
        "kubrow"
    ],
    "icon": "icons/en/Mecha_Overdrive.ed9c7abe3780e4ba4f4dc4c4192efb0b.png",
    "thumb": "icons/en/thumbs/Mecha_Overdrive.ed9c7abe3780e4ba4f4dc4c4192efb0b.128x128.png",
    "icon_format": "port",
    "url_name": "mecha_overdrive",
    "tradable": true,
    "en": {
        "item_name": "Mecha Overdrive",
        "description": "<p>Mecha Overdrive - Kubrow: +60% Status Link and +90% Status Duration</p><p>Set Bonus: Kubrow marks an enemy every 15 secs for 12 secs. Killing this enemy applies all status effects on them to other enemies within 30m.</p>",
        "wiki_link": "http://warframe.fandom.com/wiki/Mecha_Overdrive",
        "drop": []
    },
    "ru": {
        "item_name": "Mecha Overdrive",
        "description": "<p>Mecha Overdrive - Kubrow: +60% Status Link and +90% Status Duration</p><p>Set Bonus: Kubrow marks an enemy every 15 secs for 12 secs. Killing this enemy applies all status effects on them to other enemies within 30m.</p>",
        "wiki_link": "http://warframe.fandom.com/wiki/Mecha_Overdrive",
        "icon": null,
        "thumb": null,
        "drop": []
    },
    "rarity": "rare",
    "mod_max_rank": 5,
    "trading_tax": 8000
}