{
    "_id": "5be4b0a53ffcc703294e76b2",
    "tags": [
        "mod",
        "kubrow"
    ],
    "icon": "icons/en/Mecha_Recharge.7ebd4d4e0f757899b9368c69156bbc0f.png",
    "thumb": "icons/en/thumbs/Mecha_Recharge.7ebd4d4e0f757899b9368c69156bbc0f.128x128.png",
    "icon_format": "port",
    "url_name": "mecha_recharge",
    "tradable": true,
    "en": {
        "item_name": "Mecha Recharge",
        "description": "<p>Mecha Recharge - Kubrow: +20% Shield Recharge and -50% Shield Recharge Delay</p><p>Set Bonus: Kubrow marks an enemy every 15 secs for 12 secs. Killing this enemy applies all status effects on them to other enemies within 30m.</p>",
        "wiki_link": "http://warframe.fandom.com/wiki/Mecha_Recharge",
        "drop": []
    },
    "ru": {
        "item_name": "Mecha Recharge",
        "description": "<p>Mecha Recharge - Kubrow: +20% Shield Recharge and -50% Shield Recharge Delay</p><p>Set Bonus: Kubrow marks an enemy every 15 secs for 12 secs. Killing this enemy applies all status effects on them to other enemies within 30m.</p>",
        "wiki_link": "http://warframe.fandom.com/wiki/Mecha_Recharge",
        "icon": null,
        "thumb": null,
        "drop": []
    },
    "rarity": "rare",
    "mod_max_rank": 5,
    "trading_tax": 8000
}