{
    "_id": "5be701113ffcc703e462c704",
    "tags": [
        "mod",
        "k-drive"
    ],
    "icon": "icons/en/Nitro_Boost.871be7d12e749fa85fd960c2724db4e0.png",
    "thumb": "icons/en/thumbs/Nitro_Boost.871be7d12e749fa85fd960c2724db4e0.128x128.png",
    "icon_format": "port",
    "url_name": "nitro_boost",
    "tradable": true,
    "en": {
        "item_name": "Nitro Boost",
        "description": "<p>+5% K-Drive Boost Speed</p>",
        "wiki_link": null,
        "drop": []
    },
    "ru": {
        "item_name": "Nitro Boost",
        "description": "<p>+5% K-Drive Boost Speed</p>",
        "wiki_link": null,
        "icon": null,
        "thumb": null,
        "drop": []
    },
    "rarity": "rare",
    "mod_max_rank": 5,
    "trading_tax": 8000
}