{
    "_id": "5bf54b473ffcc7066e7eb853",
    "tags": [
        "arcane enhancements",
        "kitgun"
    ],
    "icon": "icons/en/Pax_Charge.99b9e313690e8366285d0585c5da5926.png",
    "thumb": "icons/en/thumbs/Pax_Charge.99b9e313690e8366285d0585c5da5926.128x128.png",
    "icon_format": "land",
    "url_name": "pax_charge",
    "tradable": true,
    "en": {
        "item_name": "Pax Charge",
        "description": "<p>Pax Charge is an Arcane Enhancement for a Kitgun that changes the magazine type to a rechargeable battery, like that of the Cycron.</p>",
        "wiki_link": "https://warframe.fandom.com/wiki/Pax_Charge",
        "drop": []
    },
    "ru": {
        "item_name": "Pax Charge",
        "description": "<p>Pax Charge is an Arcane Enhancement for a Kitgun that changes the magazine type to a rechargeable battery, like that of the Cycron.</p>",
        "wiki_link": "https://warframe.fandom.com/wiki/Pax_Charge",
        "icon": null,
        "thumb": null,
        "drop": []
    },
    "mod_max_rank": 3
}