{
    "_id": "5bf54b483ffcc7066e7eb855",
    "tags": [
        "arcane enhancements",
        "kitgun"
    ],
    "icon": "icons/en/Pax_Seeker.8e3a7fb880c0e047f9a7d60ca4fbfb84.png",
    "thumb": "icons/en/thumbs/Pax_Seeker.8e3a7fb880c0e047f9a7d60ca4fbfb84.128x128.png",
    "icon_format": "land",
    "url_name": "pax_seeker",
    "tradable": true,
    "en": {
        "item_name": "Pax Seeker",
        "description": "<p>Pax Seeker is an Arcane Enhancement for your kitgun that, on headshot kill, releases homing projectiles.</p>",
        "wiki_link": "https://warframe.fandom.com/wiki/Pax_Seeker",
        "drop": []
    },
    "ru": {
        "item_name": "Pax Seeker",
        "description": "<p>Pax Seeker is an Arcane Enhancement for your kitgun that, on headshot kill, releases homing projectiles.</p>",
        "wiki_link": "https://warframe.fandom.com/wiki/Pax_Seeker",
        "icon": null,
        "thumb": null,
        "drop": []
    },
    "mod_max_rank": 3
}