{
    "_id": "5be5f5a33ffcc7038857f129",
    "tags": [
        "mod",
        "melee",
        "umbra"
    ],
    "icon": "icons/en/Sacrificial_Pressure.908e89f9b9be51e39109b1079ff4a0c1.png",
    "thumb": "icons/en/thumbs/Sacrificial_Pressure.908e89f9b9be51e39109b1079ff4a0c1.128x128.png",
    "icon_format": "port",
    "url_name": "sacrificial_pressure",
    "tradable": true,
    "en": {
        "item_name": "Sacrificial Pressure",
        "description": "<p>Sacrificial Pressure is the Umbra variant of Pressure Point, increasing a melee weapon's base damage and damage to Sentients.</p>",
        "wiki_link": "https://warframe.fandom.com/wiki/Sacrificial_Pressure",
        "drop": []
    },
    "ru": {
        "item_name": "Sacrificial Pressure",
        "description": "<p>Sacrificial Pressure is the Umbra variant of Pressure Point, increasing a melee weapon's base damage and damage to Sentients.</p>",
        "wiki_link": "https://warframe.fandom.com/wiki/Sacrificial_Pressure",
        "icon": null,
        "thumb": null,
        "drop": []
    },
    "rarity": "legendary",
    "mod_max_rank": 10,
    "trading_tax": 1000000
}