{
    "_id": "5be701113ffcc703e462c703",
    "tags": [
        "mod"
    ],
    "icon": "icons/en/Scan_Lifeforms.1f5b71bc612710818e47644ca2e13236.png",
    "thumb": "icons/en/thumbs/Scan_Lifeforms.1f5b71bc612710818e47644ca2e13236.128x128.png",
    "icon_format": "port",
    "url_name": "scan_lifeforms",
    "tradable": true,
    "en": {
        "item_name": "Scan Lifeforms",
        "description": "<p>+1 Maximum Active Conservation Encounters</p>",
        "wiki_link": null,
        "drop": []
    },
    "ru": {
        "item_name": "Scan Lifeforms",
        "description": "<p>+1 Maximum Active Conservation Encounters</p>",
        "wiki_link": null,
        "icon": null,
        "thumb": null,
        "drop": []
    },
    "rarity": "common",
    "mod_max_rank": 3,
    "trading_tax": 2000
}