{
    "_id": "5be5f5a23ffcc7038857f11d",
    "tags": [
        "mod",
        "beast"
    ],
    "icon": "icons/en/Shock_Collar.ff5f23593d0850514dd7b63c3a16d8c9.png",
    "thumb": "icons/en/thumbs/Shock_Collar.ff5f23593d0850514dd7b63c3a16d8c9.128x128.png",
    "icon_format": "port",
    "url_name": "shock_collar",
    "tradable": true,
    "en": {
        "item_name": "Shock Collar",
        "description": "<p>Increased Electricity/Status Chance</p>",
        "wiki_link": "http://warframe.fandom.com/wiki/Shock_Collar",
        "drop": []
    },
    "ru": {
        "item_name": "Shock Collar",
        "description": "<p>Increased Electricity/Status Chance</p>",
        "wiki_link": "http://warframe.fandom.com/wiki/Shock_Collar",
        "icon": null,
        "thumb": null,
        "drop": []
    },
    "rarity": "rare",
    "mod_max_rank": 3,
    "trading_tax": 8000
}