{
    "_id": "54a73e65e779893a797fff60",
    "tags": [
        "parts",
        "prime",
        "receiver"
    ],
    "icon": "icons/en/Sicarus_Prime_Set.e7c07172e6d63d49ae349d508c56fc85.png",
    "thumb": "icons/en/thumbs/Sicarus_Prime_Set.e7c07172e6d63d49ae349d508c56fc85.128x128.png",
    "icon_format": "land",
    "sub_icon": "sub_icons/receiver_128x128.png",
    "url_name": "sicarus_prime_receiver",
    "tradable": true,
    "part_of_set": [
        "56783f24cbfa8f0432dd89ad",
        "54a73e65e779893a797fff5e",
        "54a73e65e779893a797fff5f",
        "54a73e65e779893a797fff60"
    ],
    "set_root": false,
    "en": {
        "item_name": "Sicarus Prime Receiver",
        "description": "<p>The Sicarus Prime is an improved Sicarus that sacrifices a small amount of its Impact damage to triple Puncture and Slash damage, and also sports higher accuracy, faster fire rate, and a larger magazine compared to its predecessor.</p>",
        "wiki_link": "http://warframe.wikia.com/wiki/Sicarus_Prime",
        "drop": [],
        "codex": "The Sicarus Prime is an ornamental firearm that fires rounds in rapid bursts, providing a balance between the lethality of auto-pistols and the accuracy of semi-automatic pistols."
    },
    "ru": {
        "item_name": "Сикарус прайм Приемник",
        "description": "<p>Сикарус Прайм стреляет очередью по три выстрела с преобладающим ударным уроном. Обладает увеличенным уроном, скорострельностью и точностью, повышенным шансом критического урона и статуса, а также более ёмкой обоймой по сравнению с Сикарусом.</p>",
        "wiki_link": "https://warframe.fandom.com/ru/wiki/%D0%A1%D0%B8%D0%BA%D0%B0%D1%80%D1%83%D1%81_%D0%9F%D1%80%D0%B0%D0%B9%D0%BC",
        "icon": null,
        "thumb": null,
        "drop": []
    },
    "mastery_level": 14,
    "ducats": 100,
    "trading_tax": 2000
}