{
    "_id": "5be701133ffcc703e462c709",
    "tags": [
        "mod",
        "k-drive"
    ],
    "icon": "icons/en/Slay_Board.3f264c1e37c132345e0adb8516ee7c59.png",
    "thumb": "icons/en/thumbs/Slay_Board.3f264c1e37c132345e0adb8516ee7c59.128x128.png",
    "icon_format": "port",
    "url_name": "slay_board",
    "tradable": true,
    "en": {
        "item_name": "Slay Board",
        "description": "<p>On Directional Dismount: Board is launched, dealing 50 Damage while slicing enemies.</p>",
        "wiki_link": null,
        "drop": []
    },
    "ru": {
        "item_name": "Slay Board",
        "description": "<p>On Directional Dismount: Board is launched, dealing 50 Damage while slicing enemies.</p>",
        "wiki_link": null,
        "icon": null,
        "thumb": null,
        "drop": []
    },
    "rarity": "uncommon",
    "mod_max_rank": 3,
    "trading_tax": 4000
}