{
    "_id": "5be701133ffcc703e462c706",
    "tags": [
        "mod",
        "k-drive"
    ],
    "icon": "icons/en/Thrash_Landing.7b5ed5cf38d3e32261e29f14eaa3f0f9.png",
    "thumb": "icons/en/thumbs/Thrash_Landing.7b5ed5cf38d3e32261e29f14eaa3f0f9.128x128.png",
    "icon_format": "port",
    "url_name": "thrash_landing",
    "tradable": true,
    "en": {
        "item_name": "Thrash Landing",
        "description": "<p>Landing a trick releases an explosion dealing 10% Trick Score <DT_EXPLOSION>Blast Damage to enemies within 1m.</p>",
        "wiki_link": null,
        "drop": []
    },
    "ru": {
        "item_name": "Thrash Landing",
        "description": "<p>Landing a trick releases an explosion dealing 10% Trick Score <DT_EXPLOSION>Blast Damage to enemies within 1m.</p>",
        "wiki_link": null,
        "icon": null,
        "thumb": null,
        "drop": []
    },
    "rarity": "rare",
    "mod_max_rank": 3,
    "trading_tax": 8000
}