{
    "_id": "5be5f59d3ffcc7038857f0f4",
    "tags": [
        "mod",
        "warframe",
        "umbra"
    ],
    "icon": "icons/en/Umbral_Vitality.cc8a76eb2749553c14d75103bd0775b3.png",
    "thumb": "icons/en/thumbs/Umbral_Vitality.cc8a76eb2749553c14d75103bd0775b3.128x128.png",
    "icon_format": "port",
    "url_name": "umbral_vitality",
    "tradable": true,
    "en": {
        "item_name": "Umbral Vitality",
        "description": "<p>Umbral Vitality is the Umbra variant of Vitality, increasing a Warframe's maximum health and damage resistance to Sentients.</p>",
        "wiki_link": "https://warframe.fandom.com/wiki/Umbral_Vitality",
        "drop": []
    },
    "ru": {
        "item_name": "Umbral Vitality",
        "description": "<p>Umbral Vitality is the Umbra variant of Vitality, increasing a Warframe's maximum health and damage resistance to Sentients.</p>",
        "wiki_link": "https://warframe.fandom.com/wiki/Umbral_Vitality",
        "icon": null,
        "thumb": null,
        "drop": []
    },
    "rarity": "legendary",
    "mod_max_rank": 10,
    "trading_tax": 1000000
}