{
    "_id": "5be5f5a03ffcc7038857f105",
    "tags": [
        "mod",
        "beast"
    ],
    "icon": "icons/en/Venom_Teeth.0ee29c47782681b62f7ba573dcdd10f9.png",
    "thumb": "icons/en/thumbs/Venom_Teeth.0ee29c47782681b62f7ba573dcdd10f9.128x128.png",
    "icon_format": "port",
    "url_name": "venom_teeth",
    "tradable": true,
    "en": {
        "item_name": "Venom Teeth",
        "description": "<p>Increased Toxin/Status Chance</p>",
        "wiki_link": "http://warframe.fandom.com/wiki/Venom_Teeth",
        "drop": []
    },
    "ru": {
        "item_name": "Venom Teeth",
        "description": "<p>Increased Toxin/Status Chance</p>",
        "wiki_link": "http://warframe.fandom.com/wiki/Venom_Teeth",
        "icon": null,
        "thumb": null,
        "drop": []
    },
    "rarity": "rare",
    "mod_max_rank": 3,
    "trading_tax": 8000
}